<?xml version="1.0" encoding="utf-8"?>
<!-- Generator: Adobe Illustrator 15.0.0, SVG Export Plug-In . SVG Version: 6.00 Build 0)  -->
<!DOCTYPE svg PUBLIC "-//W3C//DTD SVG 1.1//EN" "http://www.w3.org/Graphics/SVG/1.1/DTD/svg11.dtd">
<svg version="1.1" id="Capa_1" xmlns="http://www.w3.org/2000/svg" xmlns:xlink="http://www.w3.org/1999/xlink" x="0px" y="0px"
	 width="150px" height="150px" viewBox="0 0 150 150" enable-background="new 0 0 150 150" xml:space="preserve">
<path fill="#030104" d="M74.744,75.375c-14.827,0-26.896-12.066-26.896-26.895c0-14.816,12.068-26.895,26.896-26.895
	c14.823,0,26.896,12.079,26.896,26.895C101.64,63.316,89.567,75.375,74.744,75.375z M74.744,27.563
	c-11.535,0-20.918,9.383-20.918,20.917c0,11.547,9.383,20.918,20.918,20.918c11.535,0,20.92-9.371,20.92-20.918
	C95.664,36.952,86.279,27.563,74.744,27.563z"/>
<path fill="#030104" d="M74.744,93.311c-24.72,0-44.825-20.099-44.825-44.825c0-24.719,20.105-44.824,44.825-44.824
	s44.826,20.105,44.826,44.824C119.57,73.206,99.464,93.311,74.744,93.311z M74.744,9.633c-21.421,0-38.849,17.427-38.849,38.847
	s17.428,38.849,38.849,38.849c21.42,0,38.849-17.434,38.849-38.849C113.593,27.066,96.164,9.633,74.744,9.633L74.744,9.633z"/>
<path fill="#030104" d="M44.861,129.543c-0.377,0-0.76-0.076-1.124-0.225c-1.123-0.454-1.864-1.553-1.864-2.768V77.747
	c0-1.647,1.339-2.987,2.988-2.987s2.987,1.339,2.987,2.987v41.448l12.803-13.147c1.123-1.155,2.971-1.214,4.16-0.128l5.97,5.479
	c1.22,1.129,1.298,3.01,0.187,4.222c-1.118,1.214-3.012,1.313-4.226,0.174l-3.831-3.514l-15.91,16.353
	C46.428,129.229,45.651,129.543,44.861,129.543z"/>
<path fill="#030104" d="M104.624,147.471c-0.774,0-1.538-0.306-2.113-0.873l-15.815-15.818l-15.812,15.814
	c-0.854,0.866-2.14,1.112-3.258,0.642c-1.116-0.476-1.847-1.555-1.847-2.755V90.313c0-1.656,1.339-2.989,2.988-2.989
	c1.649,0,2.988,1.333,2.988,2.989v46.939l12.823-12.823c1.16-1.168,3.063-1.168,4.229,0l12.824,12.823v-58.53
	c0-1.65,1.341-2.987,2.99-2.987s2.985,1.346,2.985,2.987v65.743c0,1.203-0.727,2.3-1.85,2.755
	C105.398,147.396,105.011,147.471,104.624,147.471L104.624,147.471z"/>
</svg>
