<?xml version="1.0" encoding="utf-8"?>
<!-- Generator: Adobe Illustrator 15.0.0, SVG Export Plug-In . SVG Version: 6.00 Build 0)  -->
<!DOCTYPE svg PUBLIC "-//W3C//DTD SVG 1.1//EN" "http://www.w3.org/Graphics/SVG/1.1/DTD/svg11.dtd">
<svg version="1.1" id="Capa_1" xmlns="http://www.w3.org/2000/svg" xmlns:xlink="http://www.w3.org/1999/xlink" x="0px" y="0px"
	 width="150px" height="150px" viewBox="0 0 150 150" enable-background="new 0 0 150 150" xml:space="preserve">
<path fill="#030104" d="M82.527,110.642H68.472V96.585h14.055V110.642z"/>
<g>
	<path fill="#030104" d="M75.5,19.275c30.925,0,56.227,25.301,56.227,56.225c0,30.925-25.302,56.227-56.227,56.227
		c-30.924,0-56.225-25.302-56.225-56.227C19.275,44.576,44.576,19.275,75.5,19.275 M75.5,5.219
		C36.846,5.219,5.219,36.846,5.219,75.5c0,38.653,31.626,70.28,70.281,70.28c38.653,0,70.28-31.627,70.28-70.28
		C145.78,36.846,114.153,5.219,75.5,5.219L75.5,5.219z"/>
</g>
<g>
	<path fill="#030104" d="M68.472,89.558c0-9.841,4.217-13.354,7.731-16.869c2.107-1.406,3.514-3.514,4.216-5.623
		c1.406-2.108,1.406-4.217,1.406-7.028c0-2.812-0.701-4.92-2.108-7.029c-1.406-1.405-2.81-2.811-5.623-2.811
		c-2.108,0-7.028,0.703-7.028,10.542h-12.65V57.93c0-6.325,2.108-10.542,5.623-14.057c4.217-2.108,9.136-3.514,14.759-3.514
		c7.027,0,11.946,1.406,15.461,5.623c3.516,4.217,5.624,8.434,5.624,14.057c0,16.869-14.058,17.57-14.058,29.519H68.472z"/>
</g>
</svg>
