<?xml version="1.0" encoding="utf-8"?>
<!-- Generator: Adobe Illustrator 16.0.0, SVG Export Plug-In . SVG Version: 6.00 Build 0)  -->
<!DOCTYPE svg PUBLIC "-//W3C//DTD SVG 1.1//EN" "http://www.w3.org/Graphics/SVG/1.1/DTD/svg11.dtd">
<svg version="1.1" id="Capa_1" xmlns="http://www.w3.org/2000/svg" xmlns:xlink="http://www.w3.org/1999/xlink" x="0px" y="0px"
	 width="150px" height="150px" viewBox="0 0 150 150" enable-background="new 0 0 150 150" xml:space="preserve">
<g>
	<path fill="#030104" d="M87.686,36.656h5.304v19.937c0,0.62,0.12,1.06,0.344,1.332c0.219,0.277,0.579,0.425,1.079,0.425
		c0.387,0,0.881-0.191,1.484-0.551c0.588-0.374,1.139-0.835,1.633-1.411V36.656h5.317v26.002h-5.317v-2.869
		c-0.971,1.055-1.994,1.865-3.056,2.417c-1.056,0.549-2.081,0.832-3.081,0.832c-1.229,0-2.152-0.392-2.779-1.169
		c-0.611-0.765-0.928-1.923-0.928-3.483V36.656z M67.962,42.601c0-2.008,0.708-3.612,2.137-4.817
		c1.435-1.185,3.358-1.785,5.77-1.785c2.199,0,3.996,0.633,5.407,1.884c1.398,1.254,2.102,2.886,2.102,4.871v13.429
		c0,2.231-0.69,3.973-2.057,5.229c-1.386,1.261-3.278,1.894-5.693,1.894c-2.321,0-4.181-0.651-5.577-1.947
		c-1.392-1.314-2.091-3.074-2.091-5.281V42.601H67.962z M53.492,27.415l3.882,14.083h0.379l3.695-14.083h6.077l-6.955,20.624v14.623
		h-5.981V48.688l-7.123-21.275L53.492,27.415L53.492,27.415z M123.062,101.597c0,9.403-7.627,17.036-17.031,17.036H46.838
		c-9.41,0-17.037-7.633-17.037-17.036v-13.7c0-9.41,7.626-17.037,17.037-17.037h59.192c9.404,0,17.031,7.627,17.031,17.037V101.597z
		"/>
	<polygon fill="#FFFFFF" points="42.954,81.523 48.457,81.523 48.457,108.861 53.774,108.861 53.774,81.523 59.273,81.523 
		59.273,76.871 42.954,76.871 	"/>
	<path fill="#FFFFFF" d="M75.611,58.806c0.722,0,1.295-0.189,1.72-0.582c0.422-0.407,0.639-0.956,0.639-1.646V42.41
		c0-0.57-0.217-1.031-0.655-1.375c-0.435-0.355-0.997-0.53-1.706-0.53c-0.644,0-1.169,0.175-1.58,0.53
		c-0.404,0.344-0.603,0.808-0.603,1.375v14.167c0,0.708,0.189,1.26,0.569,1.645C74.371,58.615,74.914,58.806,75.611,58.806z"/>
	<path fill="#FFFFFF" d="M87.335,84.972c-0.73,0-1.459,0.188-2.175,0.563c-0.706,0.373-1.385,0.93-2.018,1.646V76.871h-4.769v31.99
		h4.769v-1.809c0.615,0.729,1.29,1.259,2.01,1.605c0.718,0.341,1.545,0.513,2.475,0.513c1.391,0,2.473-0.442,3.199-1.335
		c0.741-0.897,1.115-2.178,1.115-3.846V90.892c0-1.935-0.393-3.408-1.188-4.409C89.969,85.476,88.83,84.972,87.335,84.972z
		 M87.075,103.338c0,0.761-0.138,1.297-0.408,1.629c-0.273,0.337-0.694,0.5-1.273,0.5c-0.397,0-0.771-0.092-1.139-0.253
		c-0.358-0.164-0.738-0.452-1.112-0.836V89.675c0.32-0.33,0.646-0.572,0.968-0.721c0.325-0.165,0.664-0.235,1.001-0.235
		c0.632,0,1.126,0.203,1.471,0.606c0.332,0.42,0.493,1.019,0.493,1.823V103.338z"/>
	<path fill="#FFFFFF" d="M70.099,103.194c-0.44,0.506-0.928,0.921-1.458,1.261c-0.53,0.331-0.977,0.492-1.315,0.492
		c-0.449,0-0.766-0.118-0.97-0.374c-0.19-0.249-0.296-0.651-0.296-1.207V85.259h-4.715v19.735c0,1.411,0.278,2.449,0.829,3.165
		c0.561,0.7,1.371,1.05,2.466,1.05c0.887,0,1.803-0.242,2.743-0.748c0.943-0.515,1.849-1.233,2.72-2.188v2.587h4.72V85.261h-4.72
		v17.934H70.099z"/>
	<path fill="#FFFFFF" d="M101.581,84.675c-2.116,0-3.828,0.638-5.167,1.935c-1.332,1.283-2.007,2.959-2.007,4.991v10.613
		c0,2.273,0.617,4.059,1.831,5.349c1.213,1.297,2.874,1.948,4.988,1.948c2.353,0,4.116-0.606,5.295-1.825
		c1.193-1.227,1.775-3.051,1.775-5.472v-1.215h-4.85v1.078c0,1.389-0.167,2.288-0.472,2.689c-0.303,0.406-0.855,0.61-1.638,0.61
		c-0.756,0-1.286-0.234-1.599-0.71c-0.311-0.487-0.458-1.349-0.458-2.59v-4.443h9.019v-6.028c0-2.23-0.574-3.943-1.733-5.143
		C105.403,85.271,103.739,84.675,101.581,84.675z M103.447,93.958h-4.169v-2.383c0-0.988,0.15-1.708,0.481-2.12
		c0.333-0.44,0.867-0.651,1.622-0.651c0.71,0,1.247,0.211,1.569,0.651c0.322,0.412,0.493,1.125,0.493,2.12v2.383H103.447z"/>
</g>
</svg>
