<?xml version="1.0" encoding="utf-8"?>
<!-- Generator: Adobe Illustrator 16.0.0, SVG Export Plug-In . SVG Version: 6.00 Build 0)  -->
<!DOCTYPE svg PUBLIC "-//W3C//DTD SVG 1.1//EN" "http://www.w3.org/Graphics/SVG/1.1/DTD/svg11.dtd">
<svg version="1.1" id="Capa_1" xmlns="http://www.w3.org/2000/svg" xmlns:xlink="http://www.w3.org/1999/xlink" x="0px" y="0px"
	 width="150px" height="150px" viewBox="0 0 150 150" enable-background="new 0 0 150 150" xml:space="preserve">
<g>
	<path fill="#030104" d="M96.319,72.552c-0.067-0.182-0.12-0.372-0.203-0.548c-0.337-0.784-0.85-1.521-1.544-2.153L68.665,47.879
		c-2.706-2.471-7.094-2.471-9.8,0c-2.708,2.473-2.708,6.645,0,9.118l14.407,11.626h-61.34c-3.734,0-6.762,2.983-6.762,6.394
		c0,3.411,3.026,6.394,6.762,6.394h62.241l-16.677,11.4c-2.707,2.47-2.711,6.29,0,8.758c2.704,2.474,7.094,2.377,9.798-0.095
		l27.619-21.817C97.002,77.75,97.459,74.88,96.319,72.552z"/>
	<path fill="#030104" d="M40.899,60.638c4.618,0,7.578-2.769,7.578-6.178V38.086c0-3.865,3.521-7.826,8.756-7.826h60.495
		c5.23,0,6.25,6.482,6.25,10.347v77.629c0,3.859-1.02,3.132-6.25,3.132H57.233c-5.235,0-8.756-1.793-8.756-5.653V99.339
		c0-3.412-2.96-6.179-7.578-6.179c-4.621,0-7.578,2.767-7.578,6.179v16.376c0,10.664,9.458,18.44,23.912,18.44h60.495
		c14.449,0,23.571-5.255,23.571-15.919V40.605c0-11.454-1.966-23.132-23.571-23.132H57.233c-14.454,0-23.912,9.946-23.912,20.613
		V54.46C33.322,57.869,36.278,60.638,40.899,60.638z"/>
</g>
</svg>
