<?xml version="1.0" encoding="utf-8"?>
<!-- Generator: Adobe Illustrator 16.0.0, SVG Export Plug-In . SVG Version: 6.00 Build 0)  -->
<!DOCTYPE svg PUBLIC "-//W3C//DTD SVG 1.1//EN" "http://www.w3.org/Graphics/SVG/1.1/DTD/svg11.dtd">
<svg version="1.1" id="Capa_1" xmlns="http://www.w3.org/2000/svg" xmlns:xlink="http://www.w3.org/1999/xlink" x="0px" y="0px"
	 width="150px" height="150px" viewBox="0 0 150 150" enable-background="new 0 0 150 150" xml:space="preserve">
<g>
	<path fill="#030104" d="M75.813,141.237c-36.213,0-65.677-29.464-65.677-65.68c0-36.21,29.461-65.677,65.677-65.677
		c36.213,0,65.677,29.461,65.677,65.677S112.026,141.237,75.813,141.237z M75.813,22.929c-29.017,0-52.628,23.606-52.628,52.628
		c0,29.019,23.606,52.628,52.628,52.628s52.626-23.614,52.626-52.628C128.439,46.541,104.836,22.929,75.813,22.929z"/>
</g>
<g>
	<path fill="#030104" d="M75.882,91.794c-3.607,0-6.526-2.913-6.526-6.52V44.092c0-3.607,2.919-6.526,6.526-6.526
		s6.526,2.919,6.526,6.526v41.183C82.408,88.881,79.483,91.794,75.882,91.794z"/>
</g>
<g>
	<path fill="#030104" d="M75.882,113.551c-3.607,0-6.526-2.924-6.526-6.525v-2.042c0-3.601,2.919-6.52,6.526-6.52
		s6.526,2.919,6.526,6.52v2.042C82.408,110.627,79.483,113.551,75.882,113.551z"/>
</g>
</svg>
