<?xml version="1.0" encoding="utf-8"?>
<!-- Generator: Adobe Illustrator 16.0.0, SVG Export Plug-In . SVG Version: 6.00 Build 0)  -->
<!DOCTYPE svg PUBLIC "-//W3C//DTD SVG 1.1//EN" "http://www.w3.org/Graphics/SVG/1.1/DTD/svg11.dtd">
<svg version="1.1" id="Capa_1" xmlns="http://www.w3.org/2000/svg" xmlns:xlink="http://www.w3.org/1999/xlink" x="0px" y="0px"
	 width="212.842px" height="77.21px" viewBox="0 0 212.842 77.21" enable-background="new 0 0 212.842 77.21" xml:space="preserve">
<g>
	<g>
		<defs>
			<rect id="SVGID_1_" x="-96.079" y="-150.04" width="405" height="376.241"/>
		</defs>
		<clipPath id="SVGID_2_">
			<use xlink:href="#SVGID_1_"  overflow="visible"/>
		</clipPath>
	</g>
	<g>
		<defs>
			<rect id="SVGID_3_" x="-96.079" y="-150.04" width="405" height="376.241"/>
		</defs>
		<clipPath id="SVGID_4_">
			<use xlink:href="#SVGID_3_"  overflow="visible"/>
		</clipPath>
	</g>
	<g>
		<defs>
			<rect id="SVGID_5_" x="-96.079" y="-150.04" width="405" height="376.241"/>
		</defs>
		<clipPath id="SVGID_6_">
			<use xlink:href="#SVGID_5_"  overflow="visible"/>
		</clipPath>
	</g>
	<g>
		<defs>
			<rect id="SVGID_7_" x="-96.079" y="-150.04" width="405" height="376.241"/>
		</defs>
		<clipPath id="SVGID_8_">
			<use xlink:href="#SVGID_7_"  overflow="visible"/>
		</clipPath>
	</g>
	<g>
		<defs>
			<rect id="SVGID_9_" x="-96.079" y="-150.04" width="405" height="376.241"/>
		</defs>
		<clipPath id="SVGID_10_">
			<use xlink:href="#SVGID_9_"  overflow="visible"/>
		</clipPath>
	</g>
	<g>
		<defs>
			<rect id="SVGID_11_" x="-96.079" y="-150.04" width="405" height="376.241"/>
		</defs>
		<clipPath id="SVGID_12_">
			<use xlink:href="#SVGID_11_"  overflow="visible"/>
		</clipPath>
	</g>
	<g>
		<defs>
			<rect id="SVGID_13_" x="-96.079" y="-150.04" width="405" height="376.241"/>
		</defs>
		<clipPath id="SVGID_14_">
			<use xlink:href="#SVGID_13_"  overflow="visible"/>
		</clipPath>
	</g>
	<g>
		<defs>
			<rect id="SVGID_15_" x="-96.079" y="-150.04" width="405" height="376.241"/>
		</defs>
		<clipPath id="SVGID_16_">
			<use xlink:href="#SVGID_15_"  overflow="visible"/>
		</clipPath>
	</g>
	<g>
		<defs>
			<rect id="SVGID_17_" x="-96.079" y="-150.04" width="405" height="376.241"/>
		</defs>
		<clipPath id="SVGID_18_">
			<use xlink:href="#SVGID_17_"  overflow="visible"/>
		</clipPath>
	</g>
	<g>
		<defs>
			<rect id="SVGID_19_" x="-96.079" y="-150.04" width="405" height="376.241"/>
		</defs>
		<clipPath id="SVGID_20_">
			<use xlink:href="#SVGID_19_"  overflow="visible"/>
		</clipPath>
	</g>
	<g>
		<defs>
			<rect id="SVGID_21_" x="-96.079" y="-150.04" width="405" height="376.241"/>
		</defs>
		<clipPath id="SVGID_22_">
			<use xlink:href="#SVGID_21_"  overflow="visible"/>
		</clipPath>
	</g>
	<g>
		<defs>
			<rect id="SVGID_23_" x="-96.079" y="-150.04" width="405" height="376.241"/>
		</defs>
		<clipPath id="SVGID_24_">
			<use xlink:href="#SVGID_23_"  overflow="visible"/>
		</clipPath>
	</g>
	<g>
		<defs>
			<rect id="SVGID_25_" x="-96.079" y="-150.04" width="405" height="376.241"/>
		</defs>
		<clipPath id="SVGID_26_">
			<use xlink:href="#SVGID_25_"  overflow="visible"/>
		</clipPath>
	</g>
	<g>
		<defs>
			<rect id="SVGID_27_" x="-96.079" y="-150.04" width="405" height="376.241"/>
		</defs>
		<clipPath id="SVGID_28_">
			<use xlink:href="#SVGID_27_"  overflow="visible"/>
		</clipPath>
	</g>
	<g>
		<defs>
			<rect id="SVGID_29_" x="-96.079" y="-150.04" width="405" height="376.241"/>
		</defs>
		<clipPath id="SVGID_30_">
			<use xlink:href="#SVGID_29_"  overflow="visible"/>
		</clipPath>
	</g>
	<g>
		<defs>
			<rect id="SVGID_31_" x="-96.079" y="-150.04" width="405" height="376.241"/>
		</defs>
		<clipPath id="SVGID_32_">
			<use xlink:href="#SVGID_31_"  overflow="visible"/>
		</clipPath>
	</g>
</g>
<g>
	<g>
		<defs>
			<rect id="SVGID_33_" x="-96.079" y="-150.04" width="405" height="376.241"/>
		</defs>
		<clipPath id="SVGID_34_">
			<use xlink:href="#SVGID_33_"  overflow="visible"/>
		</clipPath>
	</g>
	<g>
		<defs>
			<rect id="SVGID_35_" x="-96.079" y="-150.04" width="405" height="376.241"/>
		</defs>
		<clipPath id="SVGID_36_">
			<use xlink:href="#SVGID_35_"  overflow="visible"/>
		</clipPath>
	</g>
	<g>
		<defs>
			<rect id="SVGID_37_" x="-96.079" y="-150.04" width="405" height="376.241"/>
		</defs>
		<clipPath id="SVGID_38_">
			<use xlink:href="#SVGID_37_"  overflow="visible"/>
		</clipPath>
	</g>
	<g>
		<defs>
			<rect id="SVGID_39_" x="-96.079" y="-150.04" width="405" height="376.241"/>
		</defs>
		<clipPath id="SVGID_40_">
			<use xlink:href="#SVGID_39_"  overflow="visible"/>
		</clipPath>
	</g>
	<g>
		<defs>
			<rect id="SVGID_41_" x="-96.079" y="-150.04" width="405" height="376.241"/>
		</defs>
		<clipPath id="SVGID_42_">
			<use xlink:href="#SVGID_41_"  overflow="visible"/>
		</clipPath>
	</g>
	<g>
		<defs>
			<rect id="SVGID_43_" x="-96.079" y="-150.04" width="405" height="376.241"/>
		</defs>
		<clipPath id="SVGID_44_">
			<use xlink:href="#SVGID_43_"  overflow="visible"/>
		</clipPath>
	</g>
	<g>
		<defs>
			<rect id="SVGID_45_" x="-96.079" y="-150.04" width="405" height="376.241"/>
		</defs>
		<clipPath id="SVGID_46_">
			<use xlink:href="#SVGID_45_"  overflow="visible"/>
		</clipPath>
	</g>
	<g>
		<defs>
			<rect id="SVGID_47_" x="-96.079" y="-150.04" width="405" height="376.241"/>
		</defs>
		<clipPath id="SVGID_48_">
			<use xlink:href="#SVGID_47_"  overflow="visible"/>
		</clipPath>
	</g>
	<g>
		<defs>
			<rect id="SVGID_49_" x="-96.079" y="-150.04" width="405" height="376.241"/>
		</defs>
		<clipPath id="SVGID_50_">
			<use xlink:href="#SVGID_49_"  overflow="visible"/>
		</clipPath>
	</g>
	<g>
		<defs>
			<rect id="SVGID_51_" x="-96.079" y="-150.04" width="405" height="376.241"/>
		</defs>
		<clipPath id="SVGID_52_">
			<use xlink:href="#SVGID_51_"  overflow="visible"/>
		</clipPath>
	</g>
	<g>
		<defs>
			<rect id="SVGID_53_" x="-96.079" y="-150.04" width="405" height="376.241"/>
		</defs>
		<clipPath id="SVGID_54_">
			<use xlink:href="#SVGID_53_"  overflow="visible"/>
		</clipPath>
	</g>
	<g>
		<defs>
			<rect id="SVGID_55_" x="-96.079" y="-150.04" width="405" height="376.241"/>
		</defs>
		<clipPath id="SVGID_56_">
			<use xlink:href="#SVGID_55_"  overflow="visible"/>
		</clipPath>
	</g>
	<g>
		<defs>
			<rect id="SVGID_57_" x="-96.079" y="-150.04" width="405" height="376.241"/>
		</defs>
		<clipPath id="SVGID_58_">
			<use xlink:href="#SVGID_57_"  overflow="visible"/>
		</clipPath>
	</g>
	<g>
		<defs>
			<rect id="SVGID_59_" x="-96.079" y="-150.04" width="405" height="376.241"/>
		</defs>
		<clipPath id="SVGID_60_">
			<use xlink:href="#SVGID_59_"  overflow="visible"/>
		</clipPath>
	</g>
	<g>
		<defs>
			<rect id="SVGID_61_" x="-96.079" y="-150.04" width="405" height="376.241"/>
		</defs>
		<clipPath id="SVGID_62_">
			<use xlink:href="#SVGID_61_"  overflow="visible"/>
		</clipPath>
	</g>
	<g>
		<defs>
			<rect id="SVGID_63_" x="-96.079" y="-150.04" width="405" height="376.241"/>
		</defs>
		<clipPath id="SVGID_64_">
			<use xlink:href="#SVGID_63_"  overflow="visible"/>
		</clipPath>
	</g>
	<g>
		<defs>
			<rect id="SVGID_65_" x="-96.079" y="-150.04" width="405" height="376.241"/>
		</defs>
		<clipPath id="SVGID_66_">
			<use xlink:href="#SVGID_65_"  overflow="visible"/>
		</clipPath>
	</g>
	<g>
		<defs>
			<rect id="SVGID_67_" x="-96.079" y="-150.04" width="405" height="376.241"/>
		</defs>
		<clipPath id="SVGID_68_">
			<use xlink:href="#SVGID_67_"  overflow="visible"/>
		</clipPath>
	</g>
	<g>
		<defs>
			<rect id="SVGID_69_" x="-96.079" y="-150.04" width="405" height="376.241"/>
		</defs>
		<clipPath id="SVGID_70_">
			<use xlink:href="#SVGID_69_"  overflow="visible"/>
		</clipPath>
	</g>
	<g>
		<defs>
			<rect id="SVGID_71_" x="-96.079" y="-150.04" width="405" height="376.241"/>
		</defs>
		<clipPath id="SVGID_72_">
			<use xlink:href="#SVGID_71_"  overflow="visible"/>
		</clipPath>
	</g>
	<g>
		<defs>
			<rect id="SVGID_73_" x="-96.079" y="-150.04" width="405" height="376.241"/>
		</defs>
		<clipPath id="SVGID_74_">
			<use xlink:href="#SVGID_73_"  overflow="visible"/>
		</clipPath>
	</g>
	<g>
		<defs>
			<rect id="SVGID_75_" x="-96.079" y="-150.04" width="405" height="376.241"/>
		</defs>
		<clipPath id="SVGID_76_">
			<use xlink:href="#SVGID_75_"  overflow="visible"/>
		</clipPath>
	</g>
	<g>
		<defs>
			<rect id="SVGID_77_" x="-96.079" y="-150.04" width="405" height="376.241"/>
		</defs>
		<clipPath id="SVGID_78_">
			<use xlink:href="#SVGID_77_"  overflow="visible"/>
		</clipPath>
	</g>
	<g>
		<defs>
			<rect id="SVGID_79_" x="-96.079" y="-150.04" width="405" height="376.241"/>
		</defs>
		<clipPath id="SVGID_80_">
			<use xlink:href="#SVGID_79_"  overflow="visible"/>
		</clipPath>
	</g>
	<g>
		<defs>
			<rect id="SVGID_81_" x="-96.079" y="-150.04" width="405" height="376.241"/>
		</defs>
		<clipPath id="SVGID_82_">
			<use xlink:href="#SVGID_81_"  overflow="visible"/>
		</clipPath>
	</g>
	<g>
		<defs>
			<rect id="SVGID_83_" x="-96.079" y="-150.04" width="405" height="376.241"/>
		</defs>
		<clipPath id="SVGID_84_">
			<use xlink:href="#SVGID_83_"  overflow="visible"/>
		</clipPath>
	</g>
	<g>
		<defs>
			<rect id="SVGID_85_" x="-96.079" y="-150.04" width="405" height="376.241"/>
		</defs>
		<clipPath id="SVGID_86_">
			<use xlink:href="#SVGID_85_"  overflow="visible"/>
		</clipPath>
	</g>
	<g>
		<defs>
			<rect id="SVGID_87_" x="-96.079" y="-150.04" width="405" height="376.241"/>
		</defs>
		<clipPath id="SVGID_88_">
			<use xlink:href="#SVGID_87_"  overflow="visible"/>
		</clipPath>
	</g>
	<g>
		<defs>
			<rect id="SVGID_89_" x="-96.079" y="-150.04" width="405" height="376.241"/>
		</defs>
		<clipPath id="SVGID_90_">
			<use xlink:href="#SVGID_89_"  overflow="visible"/>
		</clipPath>
	</g>
	<g>
		<defs>
			<rect id="SVGID_91_" x="-96.079" y="-150.04" width="405" height="376.241"/>
		</defs>
		<clipPath id="SVGID_92_">
			<use xlink:href="#SVGID_91_"  overflow="visible"/>
		</clipPath>
	</g>
	<g>
		<defs>
			<rect id="SVGID_93_" x="-96.079" y="-150.04" width="405" height="376.241"/>
		</defs>
		<clipPath id="SVGID_94_">
			<use xlink:href="#SVGID_93_"  overflow="visible"/>
		</clipPath>
	</g>
	<g>
		<defs>
			<rect id="SVGID_95_" x="-96.079" y="-150.04" width="405" height="376.241"/>
		</defs>
		<clipPath id="SVGID_96_">
			<use xlink:href="#SVGID_95_"  overflow="visible"/>
		</clipPath>
	</g>
	<g>
		<defs>
			<rect id="SVGID_97_" x="-96.079" y="-150.04" width="405" height="376.241"/>
		</defs>
		<clipPath id="SVGID_98_">
			<use xlink:href="#SVGID_97_"  overflow="visible"/>
		</clipPath>
	</g>
	<g>
		<defs>
			<rect id="SVGID_99_" x="-96.079" y="-150.04" width="405" height="376.241"/>
		</defs>
		<clipPath id="SVGID_100_">
			<use xlink:href="#SVGID_99_"  overflow="visible"/>
		</clipPath>
	</g>
	<g>
		<defs>
			<rect id="SVGID_101_" x="-96.079" y="-150.04" width="405" height="376.241"/>
		</defs>
		<clipPath id="SVGID_102_">
			<use xlink:href="#SVGID_101_"  overflow="visible"/>
		</clipPath>
	</g>
	<g>
		<defs>
			<rect id="SVGID_103_" x="-96.079" y="-150.04" width="405" height="376.241"/>
		</defs>
		<clipPath id="SVGID_104_">
			<use xlink:href="#SVGID_103_"  overflow="visible"/>
		</clipPath>
	</g>
</g>
<g>
	<g>
		<g>
			<path d="M128.688,68.331l1.091-7.777h-1.418l0.26-1.862h5.009l-0.262,1.862h-1.42l-1.091,7.777H128.688z"/>
			<path d="M138.525,60.614l-1.083,7.717h-1.925l0.132-0.916c-0.225,0.338-0.487,0.604-0.794,0.786
				c-0.302,0.185-0.618,0.275-0.952,0.275c-0.49,0-0.84-0.159-1.04-0.479c-0.199-0.318-0.258-0.795-0.17-1.425l0.839-5.959h2.039
				l-0.753,5.36c-0.027,0.192-0.013,0.343,0.044,0.438c0.058,0.101,0.154,0.146,0.293,0.146c0.181,0,0.322-0.065,0.418-0.201
				c0.098-0.135,0.169-0.37,0.215-0.701l0.709-5.042H138.525z"/>
			<path d="M144.452,67.778c-0.275,0.24-0.544,0.415-0.798,0.527c-0.261,0.117-0.528,0.171-0.802,0.171
				c-0.483,0-0.845-0.168-1.082-0.503c-0.237-0.333-0.315-0.786-0.233-1.353l0.085-0.61c0.071-0.506,0.244-0.931,0.525-1.274
				c0.28-0.343,0.678-0.63,1.206-0.862c0.097-0.041,0.231-0.102,0.405-0.173c0.834-0.354,1.278-0.72,1.329-1.088l0.04-0.278
				c0.019-0.135-0.008-0.254-0.085-0.351s-0.184-0.144-0.315-0.144c-0.148,0-0.277,0.067-0.385,0.203
				c-0.109,0.131-0.181,0.315-0.214,0.543l-0.065,0.483h-1.893l0.064-0.483c0.096-0.669,0.382-1.189,0.857-1.558
				c0.479-0.371,1.105-0.559,1.881-0.559c0.851,0,1.448,0.18,1.781,0.535c0.336,0.356,0.442,0.939,0.33,1.753l-0.78,5.572h-1.894
				L144.452,67.778z M144.827,64.479c-0.422,0.216-0.702,0.403-0.846,0.569c-0.142,0.163-0.232,0.386-0.272,0.671L143.6,66.5
				c-0.041,0.292-0.041,0.482,0,0.573c0.046,0.095,0.133,0.141,0.271,0.141c0.182,0,0.337-0.083,0.46-0.251
				c0.122-0.166,0.204-0.405,0.249-0.714L144.827,64.479z"/>
			<path d="M153.382,60.614l-1.085,7.717h-1.923l0.13-0.916c-0.225,0.338-0.489,0.604-0.791,0.786
				c-0.305,0.185-0.621,0.275-0.955,0.275c-0.49,0-0.84-0.159-1.041-0.479c-0.2-0.318-0.257-0.795-0.169-1.425l0.835-5.959h2.044
				l-0.754,5.36c-0.026,0.192-0.015,0.343,0.044,0.438c0.057,0.101,0.154,0.146,0.296,0.146c0.18,0,0.319-0.065,0.416-0.201
				c0.095-0.135,0.168-0.37,0.215-0.701l0.709-5.042H153.382z"/>
			<path d="M156.153,66.883L155.94,68.4c-0.133,0.024-0.272,0.044-0.407,0.055c-0.138,0.014-0.274,0.021-0.41,0.021
				c-0.665,0-1.103-0.14-1.31-0.423c-0.211-0.284-0.248-0.897-0.117-1.839l0.562-3.999h-0.505l0.207-1.466h0.505l0.226-1.616h1.994
				l-0.227,1.616h0.555l-0.202,1.466h-0.593l-0.598,4.262c-0.021,0.135,0.013,0.235,0.093,0.304
				c0.082,0.068,0.212,0.103,0.388,0.103H156.153z"/>
			<path d="M157.293,62.875c0.112-0.808,0.404-1.407,0.873-1.805c0.472-0.397,1.127-0.6,1.972-0.6s1.449,0.202,1.811,0.6
				c0.365,0.397,0.487,0.997,0.376,1.805l-0.447,3.193c-0.114,0.806-0.409,1.409-0.882,1.81c-0.474,0.396-1.133,0.599-1.98,0.599
				c-0.844,0-1.445-0.199-1.802-0.596c-0.363-0.398-0.483-1.003-0.369-1.813L157.293,62.875z M159.771,66.355l0.525-3.769
				c0.033-0.226,0.022-0.387-0.037-0.485c-0.059-0.1-0.169-0.149-0.328-0.149c-0.16,0-0.281,0.052-0.368,0.152
				c-0.091,0.099-0.147,0.259-0.178,0.482l-0.529,3.769c-0.034,0.232-0.02,0.395,0.035,0.494c0.059,0.097,0.168,0.146,0.331,0.146
				c0.165,0,0.29-0.05,0.376-0.146C159.683,66.75,159.736,66.587,159.771,66.355z"/>
			<path d="M167.717,66.355c-0.033,0.232-0.018,0.395,0.036,0.494c0.056,0.097,0.166,0.146,0.331,0.146s0.289-0.05,0.372-0.146
				c0.085-0.1,0.144-0.262,0.176-0.494l0.126-0.897h2.063l-0.087,0.61c-0.112,0.806-0.405,1.409-0.88,1.81
				c-0.476,0.396-1.134,0.599-1.977,0.599c-0.848,0-1.447-0.199-1.807-0.596c-0.358-0.398-0.481-1.003-0.367-1.813l0.447-3.193
				c0.113-0.808,0.405-1.407,0.877-1.805c0.469-0.397,1.127-0.6,1.972-0.6c0.842,0,1.445,0.202,1.806,0.6
				c0.365,0.397,0.49,0.997,0.38,1.805l-0.273,1.941h-2.98L167.717,66.355z M168.242,62.586l-0.11,0.818h0.914l0.113-0.818
				c0.032-0.226,0.02-0.387-0.038-0.485c-0.059-0.1-0.17-0.149-0.327-0.149c-0.162,0-0.286,0.052-0.374,0.152
				C168.335,62.203,168.278,62.363,168.242,62.586z"/>
			<path d="M171.428,65.825h1.846l-0.063,0.447c-0.033,0.244-0.022,0.427,0.037,0.556c0.063,0.126,0.167,0.19,0.314,0.19
				c0.138,0,0.257-0.055,0.355-0.163c0.098-0.111,0.16-0.257,0.189-0.442c0.036-0.257-0.146-0.571-0.551-0.944
				c-0.028-0.028-0.051-0.048-0.06-0.059c-0.076-0.071-0.185-0.171-0.322-0.295c-0.939-0.856-1.355-1.678-1.244-2.456
				c0.091-0.671,0.382-1.205,0.866-1.604c0.483-0.397,1.085-0.597,1.813-0.597c0.694,0,1.207,0.187,1.541,0.55
				c0.329,0.365,0.448,0.881,0.358,1.547l-0.05,0.344h-1.836l0.046-0.335c0.033-0.237,0.025-0.415-0.027-0.521
				c-0.055-0.111-0.158-0.166-0.313-0.166c-0.122,0-0.232,0.049-0.328,0.142c-0.1,0.098-0.156,0.22-0.181,0.364
				c-0.036,0.272,0.229,0.662,0.8,1.168c0.178,0.158,0.314,0.281,0.41,0.369c0.473,0.432,0.78,0.817,0.932,1.155
				c0.146,0.34,0.189,0.735,0.124,1.187c-0.096,0.679-0.39,1.215-0.886,1.615c-0.495,0.396-1.121,0.599-1.875,0.599
				c-0.705,0-1.237-0.188-1.585-0.566c-0.35-0.378-0.481-0.9-0.383-1.566L171.428,65.825z"/>
			<path d="M179.366,66.883l-0.215,1.517c-0.136,0.024-0.269,0.044-0.409,0.055c-0.138,0.014-0.271,0.021-0.41,0.021
				c-0.663,0-1.1-0.14-1.309-0.423c-0.21-0.284-0.248-0.897-0.116-1.839l0.563-3.999h-0.504l0.204-1.466h0.505l0.225-1.616h1.996
				l-0.229,1.616h0.562l-0.21,1.466h-0.592l-0.599,4.262c-0.02,0.135,0.014,0.235,0.098,0.304c0.081,0.068,0.209,0.103,0.386,0.103
				H179.366z"/>
			<path d="M182.806,67.778c-0.275,0.24-0.545,0.415-0.801,0.527c-0.259,0.117-0.523,0.171-0.802,0.171
				c-0.481,0-0.844-0.168-1.08-0.503c-0.235-0.333-0.315-0.786-0.235-1.353l0.088-0.61c0.069-0.506,0.245-0.931,0.522-1.274
				c0.28-0.343,0.683-0.63,1.207-0.862c0.096-0.041,0.23-0.102,0.405-0.173c0.837-0.354,1.281-0.72,1.329-1.088l0.039-0.278
				c0.02-0.135-0.008-0.254-0.085-0.351s-0.179-0.144-0.313-0.144c-0.147,0-0.276,0.067-0.387,0.203
				c-0.107,0.131-0.179,0.315-0.209,0.543l-0.069,0.483h-1.894l0.069-0.483c0.092-0.669,0.379-1.189,0.857-1.558
				c0.477-0.371,1.104-0.559,1.876-0.559c0.851,0,1.449,0.18,1.782,0.535c0.335,0.356,0.446,0.939,0.331,1.753l-0.781,5.572h-1.895
				L182.806,67.778z M183.179,64.479c-0.419,0.216-0.703,0.403-0.845,0.569c-0.14,0.163-0.233,0.386-0.271,0.671L181.95,66.5
				c-0.04,0.292-0.04,0.482,0,0.573c0.046,0.095,0.134,0.141,0.271,0.141c0.187,0,0.338-0.083,0.461-0.251
				c0.123-0.166,0.204-0.405,0.248-0.714L183.179,64.479z M182.459,60.037l1.399-1.674h1.73l-2.286,1.674H182.459z"/>
			<path d="M191.653,67.778c-0.275,0.24-0.542,0.415-0.801,0.527c-0.256,0.117-0.524,0.171-0.797,0.171
				c-0.483,0-0.845-0.168-1.083-0.503c-0.236-0.333-0.315-0.786-0.232-1.353l0.085-0.61c0.071-0.506,0.244-0.931,0.521-1.274
				c0.278-0.343,0.682-0.63,1.206-0.862c0.095-0.041,0.231-0.102,0.408-0.173c0.834-0.354,1.278-0.72,1.33-1.088l0.038-0.278
				c0.021-0.135-0.007-0.254-0.086-0.351c-0.074-0.097-0.182-0.144-0.313-0.144c-0.147,0-0.278,0.067-0.385,0.203
				c-0.11,0.131-0.179,0.315-0.213,0.543l-0.066,0.483h-1.895l0.066-0.483c0.095-0.669,0.382-1.189,0.858-1.558
				c0.479-0.371,1.105-0.559,1.876-0.559c0.855,0,1.448,0.18,1.782,0.535c0.335,0.356,0.446,0.939,0.333,1.753l-0.784,5.572h-1.892
				L191.653,67.778z M192.028,64.479c-0.421,0.216-0.703,0.403-0.845,0.569c-0.141,0.163-0.231,0.386-0.272,0.671l-0.11,0.781
				c-0.038,0.292-0.038,0.482,0.002,0.573c0.041,0.095,0.129,0.141,0.269,0.141c0.184,0,0.336-0.083,0.458-0.251
				c0.124-0.166,0.207-0.405,0.253-0.714L192.028,64.479z"/>
			<path d="M200.501,60.614l-1.279,9.114h-2.034l0.3-2.144c-0.217,0.293-0.463,0.513-0.735,0.666
				c-0.273,0.151-0.566,0.226-0.875,0.226c-0.49,0-0.836-0.157-1.037-0.475c-0.193-0.317-0.25-0.794-0.16-1.429l0.593-4.214
				c0.087-0.635,0.274-1.109,0.561-1.419c0.288-0.312,0.676-0.47,1.167-0.47c0.324,0,0.611,0.088,0.862,0.265
				c0.254,0.177,0.44,0.426,0.567,0.747l0.121-0.868H200.501z M198.099,63.216c0.066-0.481,0.079-0.804,0.03-0.969
				c-0.045-0.167-0.16-0.249-0.333-0.249c-0.144,0-0.25,0.05-0.334,0.146c-0.079,0.095-0.131,0.244-0.158,0.442l-0.528,3.757
				c-0.028,0.199-0.017,0.349,0.04,0.451c0.055,0.099,0.15,0.148,0.286,0.148c0.175,0,0.306-0.083,0.403-0.251
				c0.093-0.165,0.176-0.485,0.241-0.961L198.099,63.216z"/>
			<path d="M206.504,60.614l-1.085,7.717h-1.923l0.129-0.916c-0.223,0.338-0.482,0.604-0.789,0.786
				c-0.303,0.185-0.618,0.275-0.951,0.275c-0.496,0-0.842-0.159-1.044-0.479c-0.2-0.318-0.259-0.795-0.166-1.425l0.834-5.959h2.039
				l-0.751,5.36c-0.026,0.192-0.012,0.343,0.045,0.438c0.056,0.101,0.153,0.146,0.297,0.146c0.176,0,0.318-0.065,0.413-0.201
				c0.099-0.135,0.17-0.37,0.215-0.701l0.707-5.042H206.504z"/>
			<path d="M206.477,68.331l1.083-7.717h2.028l-1.082,7.717H206.477z M207.712,60.037l1.399-1.674h1.73l-2.288,1.674H207.712z"/>
		</g>
		<g>
			<g>
				<path fill="#8A8A8A" d="M168.608,45.278v3.498h-3.488v-3.498H168.608z"/>
				<g>
					<path fill="#8A8A8A" d="M178.011,41.435c-0.059-0.427-0.2-0.813-0.434-1.155c-0.332-0.462-0.857-0.693-1.563-0.693
						c-1.01,0-1.701,0.502-2.071,1.501c-0.194,0.533-0.294,1.238-0.294,2.118c0,0.837,0.1,1.511,0.294,2.021
						c0.359,0.953,1.029,1.429,2.02,1.429c0.696,0,1.197-0.19,1.49-0.568c0.295-0.379,0.475-0.867,0.534-1.469h3.05
						c-0.069,0.91-0.396,1.771-0.985,2.583c-0.94,1.31-2.325,1.963-4.164,1.963c-1.84,0-3.191-0.546-4.062-1.638
						c-0.867-1.093-1.297-2.509-1.297-4.248c0-1.965,0.477-3.492,1.437-4.584c0.955-1.093,2.278-1.639,3.962-1.639
						c1.435,0,2.607,0.322,3.521,0.966c0.912,0.643,1.451,1.781,1.621,3.413H178.011z"/>
					<path fill="#8A8A8A" d="M191.778,47.375c-0.966,1.193-2.428,1.79-4.391,1.79c-1.962,0-3.426-0.597-4.388-1.79
						c-0.966-1.19-1.448-2.628-1.448-4.307c0-1.65,0.482-3.08,1.448-4.292c0.962-1.209,2.426-1.814,4.388-1.814
						c1.963,0,3.425,0.605,4.391,1.814c0.966,1.212,1.448,2.642,1.448,4.292C193.227,44.747,192.744,46.184,191.778,47.375z
						 M189.393,45.723c0.465-0.623,0.699-1.508,0.699-2.655c0-1.146-0.234-2.029-0.699-2.648c-0.47-0.617-1.14-0.928-2.013-0.928
						c-0.874,0-1.548,0.311-2.017,0.928c-0.473,0.619-0.709,1.502-0.709,2.648c0,1.147,0.236,2.032,0.709,2.655
						c0.469,0.621,1.143,0.933,2.017,0.933C188.253,46.656,188.923,46.344,189.393,45.723z"/>
					<path fill="#8A8A8A" d="M208.756,37.371c0.49,0.196,0.935,0.539,1.332,1.028c0.318,0.401,0.538,0.891,0.65,1.472
						c0.068,0.385,0.104,0.948,0.104,1.69l-0.021,7.215h-3.06v-7.287c0-0.435-0.071-0.793-0.21-1.073
						c-0.267-0.531-0.756-0.796-1.467-0.796c-0.826,0-1.396,0.343-1.708,1.028c-0.162,0.364-0.24,0.801-0.24,1.313v6.814h-3.008
						v-6.814c0-0.68-0.073-1.175-0.208-1.481c-0.253-0.554-0.746-0.83-1.479-0.83c-0.852,0-1.425,0.276-1.719,0.83
						c-0.161,0.315-0.24,0.783-0.24,1.406v6.89h-3.03V37.349h2.903v1.672c0.369-0.596,0.717-1.021,1.048-1.272
						c0.579-0.449,1.329-0.672,2.255-0.672c0.873,0,1.576,0.192,2.116,0.578c0.432,0.356,0.762,0.816,0.984,1.375
						c0.392-0.672,0.876-1.166,1.456-1.481c0.613-0.315,1.299-0.472,2.053-0.472C207.772,37.077,208.269,37.174,208.756,37.371z"/>
				</g>
			</g>
			<g>
				<path fill="#E27F1E" d="M44.563,29.17h4.386l3.754,8.04c0.992,2.139,1.757,4.251,2.151,5.698
					c-0.142-1.564-0.282-4.137-0.311-5.524l-0.083-8.213h3.759v20.103h-4.13l-3.36-7.695c-1.074-2.515-2.293-5.349-2.662-6.595
					c0.142,1.647,0.175,4.018,0.2,5.701l0.113,8.59h-3.816V29.17z"/>
				<path fill="#E27F1E" d="M62.879,29.17h11.19l-0.509,3.295h-6.727v4.656h5.626v3.302h-5.571v5.376h7.437v3.474H62.879V29.17z"/>
				<path fill="#E27F1E" d="M102.089,29.17h4.271l6.192,20.156h-4.241l-1.385-4.769h-5.77l-1.385,4.769h-4.132L102.089,29.17z
					 M102.116,41.201h3.848c0,0-0.652-2.111-1.078-4.049c-0.196-0.923-0.791-3.558-0.791-3.558s-0.564,2.373-0.932,3.874
					C102.796,38.915,102.542,39.87,102.116,41.201z"/>
				<path fill="#E27F1E" d="M113.579,29.17h4.044v13.215c0,1.506,0.055,1.852,0.34,2.401c0.45,0.901,1.384,1.39,2.687,1.39
					c1.724,0,2.827-0.87,2.997-2.346c0.053-0.433,0.053-0.721,0.053-1.792V29.17h4.015v13.537c0,1.907-0.027,2.284-0.312,3.151
					c-0.505,1.595-2.433,3.787-6.669,3.787c-2.995,0-5.175-0.919-6.308-2.687c-0.648-1.045-0.847-1.854-0.847-3.793V29.17z"/>
				<path fill="#E27F1E" d="M129.043,29.17h14.164l-0.648,3.353h-4.695v16.75h-4.015v-16.75h-4.806V29.17z"/>
				<path d="M153.202,29.177c-6.075,0-11.027,5.064-11.027,11.283c0,6.218,4.952,11.282,11.027,11.282
					c6.071,0,11.025-5.064,11.025-11.282C164.228,34.241,159.273,29.177,153.202,29.177z M153.202,47.985
					c-3.891,0-7.046-3.39-7.046-7.525c0-4.135,3.155-7.528,7.046-7.528c3.884,0,7.039,3.393,7.039,7.528
					C160.241,44.595,157.086,47.985,153.202,47.985z"/>
				<g>
					<g>
						<g>
							<g>
								<path d="M85.539,29.18c6.077,0,11.029,5.063,11.029,11.282c0,6.216-4.953,11.281-11.029,11.281s-11.023-5.065-11.023-11.281
									C74.516,34.243,79.462,29.18,85.539,29.18z M85.539,47.985c3.888,0,7.042-3.388,7.042-7.522
									c0-4.137-3.154-7.528-7.042-7.528c-3.886,0-7.041,3.391-7.041,7.528C78.498,44.597,81.652,47.985,85.539,47.985z"/>
							</g>
						</g>
					</g>
				</g>
				<g>
					<path d="M91.128,25.596c6.827-8.211,17.018-13.427,28.388-13.427l0,0c11.307,0,21.458,5.166,28.282,13.317l0,0l-2.979,2.617
						c-6.119-7.302-15.178-11.92-25.304-11.92l0,0c-10.18,0-19.274,4.665-25.394,12.019l0,0L91.128,25.596L91.128,25.596z"/>
				</g>
				<g>
					<path fill="#E27F1E" d="M85.557,36.596c-0.504,0-0.912,0.409-0.912,0.913c0,0.504,0.407,0.915,0.912,0.915
						c0.502,0,0.911-0.41,0.911-0.915C86.468,37.005,86.06,36.596,85.557,36.596"/>
					<path fill="#E27F1E" d="M83.459,42.498c-0.503,0-0.911,0.406-0.911,0.912c0,0.504,0.408,0.913,0.911,0.913
						c0.505,0,0.913-0.409,0.913-0.913C84.372,42.904,83.964,42.498,83.459,42.498"/>
					<path fill="#E27F1E" d="M88.837,38.878c-0.502,0-0.912,0.408-0.912,0.913c0,0.503,0.41,0.914,0.912,0.914
						c0.503,0,0.911-0.411,0.911-0.914C89.748,39.286,89.34,38.878,88.837,38.878"/>
					<path fill="#E27F1E" d="M82.344,38.878c-0.503,0-0.911,0.408-0.911,0.915c0,0.505,0.408,0.912,0.911,0.912
						s0.911-0.407,0.911-0.912C83.255,39.286,82.847,38.878,82.344,38.878"/>
					<path fill="#E27F1E" d="M87.448,42.494c-0.503,0-0.911,0.41-0.911,0.916c0,0.504,0.408,0.913,0.911,0.913
						c0.503,0,0.911-0.409,0.911-0.913C88.359,42.904,87.951,42.494,87.448,42.494"/>
				</g>
				<g>
					<path fill="#E27F1E" d="M153.17,36.596c-0.505,0-0.915,0.409-0.915,0.913c0,0.504,0.41,0.915,0.915,0.915
						c0.499,0,0.908-0.41,0.908-0.915C154.078,37.005,153.669,36.596,153.17,36.596"/>
					<path fill="#E27F1E" d="M151.07,42.498c-0.505,0-0.911,0.406-0.911,0.912c0,0.504,0.406,0.913,0.911,0.913
						c0.503,0,0.914-0.409,0.914-0.913C151.984,42.904,151.573,42.498,151.07,42.498"/>
					<path fill="#E27F1E" d="M156.447,38.878c-0.503,0-0.91,0.408-0.91,0.913c0,0.503,0.407,0.914,0.91,0.914
						s0.911-0.411,0.911-0.914C157.358,39.286,156.95,38.878,156.447,38.878"/>
					<path fill="#E27F1E" d="M149.954,38.878c-0.502,0-0.91,0.408-0.91,0.915c0,0.505,0.408,0.912,0.91,0.912
						c0.505,0,0.912-0.407,0.912-0.912C150.866,39.286,150.459,38.878,149.954,38.878"/>
					<path fill="#E27F1E" d="M155.059,42.494c-0.503,0-0.911,0.41-0.911,0.916c0,0.504,0.408,0.913,0.911,0.913
						s0.909-0.409,0.909-0.913C155.968,42.904,155.562,42.494,155.059,42.494"/>
				</g>
			</g>
		</g>
	</g>
	<g>
		
			<radialGradient id="SVGID_105_" cx="417.7686" cy="-243.0542" r="16.1265" gradientTransform="matrix(2.4334 0 0 0.1418 -995.8389 99.3836)" gradientUnits="userSpaceOnUse">
			<stop  offset="0.1675" style="stop-color:#505050"/>
			<stop  offset="0.1709" style="stop-color:#525252;stop-opacity:0.996"/>
			<stop  offset="0.2749" style="stop-color:#7F7F7F;stop-opacity:0.871"/>
			<stop  offset="0.3823" style="stop-color:#A6A6A6;stop-opacity:0.742"/>
			<stop  offset="0.4928" style="stop-color:#C7C7C7;stop-opacity:0.6093"/>
			<stop  offset="0.6068" style="stop-color:#DFDFDF;stop-opacity:0.4724"/>
			<stop  offset="0.7254" style="stop-color:#F1F1F1;stop-opacity:0.3298"/>
			<stop  offset="0.852" style="stop-color:#FCFCFC;stop-opacity:0.1778"/>
			<stop  offset="1" style="stop-color:#FFFFFF;stop-opacity:0"/>
		</radialGradient>
		<path opacity="0.53" fill="url(#SVGID_105_)" d="M59.993,64.928c0,1.263-17.568,2.286-39.241,2.286
			c-21.668,0-39.237-1.023-39.237-2.286c0-1.265,17.569-2.286,39.237-2.286C42.424,62.642,59.993,63.664,59.993,64.928z"/>
		<g>
			<g>
				<g>
					<linearGradient id="SVGID_106_" gradientUnits="userSpaceOnUse" x1="10.4395" y1="65.1362" x2="15.2495" y2="54.3463">
						<stop  offset="0" style="stop-color:#DA0000"/>
						<stop  offset="0.2028" style="stop-color:#D30303"/>
						<stop  offset="0.4925" style="stop-color:#C00A0B"/>
						<stop  offset="0.8329" style="stop-color:#A21618"/>
						<stop  offset="1" style="stop-color:#901D1F"/>
					</linearGradient>
					<polygon fill="url(#SVGID_106_)" points="20.608,42.72 17.784,41.408 7.788,63.04 11.327,62.803 13.435,65.661 23.433,44.03 
											"/>
					<linearGradient id="SVGID_107_" gradientUnits="userSpaceOnUse" x1="14.3018" y1="66.8589" x2="19.1108" y2="56.0711">
						<stop  offset="0" style="stop-color:#DA0000"/>
						<stop  offset="0.2028" style="stop-color:#D30303"/>
						<stop  offset="0.4925" style="stop-color:#C00A0B"/>
						<stop  offset="0.8329" style="stop-color:#A21618"/>
						<stop  offset="1" style="stop-color:#901D1F"/>
					</linearGradient>
					<polygon fill="url(#SVGID_107_)" points="24.068,44.325 13.909,66.302 14.475,67.074 24.827,44.677 					"/>
					<linearGradient id="SVGID_108_" gradientUnits="userSpaceOnUse" x1="6.5757" y1="63.397" x2="11.3844" y2="52.61">
						<stop  offset="0" style="stop-color:#DA0000"/>
						<stop  offset="0.2028" style="stop-color:#D30303"/>
						<stop  offset="0.4925" style="stop-color:#C00A0B"/>
						<stop  offset="0.8329" style="stop-color:#A21618"/>
						<stop  offset="1" style="stop-color:#901D1F"/>
					</linearGradient>
					<polygon fill="url(#SVGID_108_)" points="16.391,40.761 6.04,63.158 6.991,63.092 17.15,41.113 					"/>
				</g>
				<polygon fill="#FFFFFF" points="24.068,44.325 13.909,66.302 13.435,65.661 23.433,44.03 				"/>
				<polygon fill="#FFFFFF" points="17.784,41.408 7.788,63.04 6.991,63.092 17.15,41.113 				"/>
			</g>
			<g>
				<g>
					
						<radialGradient id="SVGID_109_" cx="28.9956" cy="63.1704" r="7.6539" gradientTransform="matrix(1.0362 0 0 1.0385 -0.072 -2.424)" gradientUnits="userSpaceOnUse">
						<stop  offset="0" style="stop-color:#DA0000"/>
						<stop  offset="0.2028" style="stop-color:#D30303"/>
						<stop  offset="0.4925" style="stop-color:#C00A0B"/>
						<stop  offset="0.8329" style="stop-color:#A21618"/>
						<stop  offset="1" style="stop-color:#901D1F"/>
					</radialGradient>
					<polygon fill="url(#SVGID_109_)" points="20.486,42.72 17.661,44.03 27.659,65.661 29.766,62.803 33.308,63.04 23.31,41.408 
											"/>
					
						<radialGradient id="SVGID_110_" cx="28.9956" cy="63.1694" r="7.6533" gradientTransform="matrix(1.0362 0 0 1.0385 -0.072 -2.424)" gradientUnits="userSpaceOnUse">
						<stop  offset="0" style="stop-color:#DA0000"/>
						<stop  offset="0.2028" style="stop-color:#D30303"/>
						<stop  offset="0.4925" style="stop-color:#C00A0B"/>
						<stop  offset="0.8329" style="stop-color:#A21618"/>
						<stop  offset="1" style="stop-color:#901D1F"/>
					</radialGradient>
					<polygon fill="url(#SVGID_110_)" points="16.267,44.677 26.619,67.074 27.186,66.302 17.028,44.325 					"/>
					
						<radialGradient id="SVGID_111_" cx="28.9951" cy="63.1694" r="7.6534" gradientTransform="matrix(1.0362 0 0 1.0385 -0.072 -2.424)" gradientUnits="userSpaceOnUse">
						<stop  offset="0" style="stop-color:#DA0000"/>
						<stop  offset="0.2028" style="stop-color:#D30303"/>
						<stop  offset="0.4925" style="stop-color:#C00A0B"/>
						<stop  offset="0.8329" style="stop-color:#A21618"/>
						<stop  offset="1" style="stop-color:#901D1F"/>
					</radialGradient>
					<polygon fill="url(#SVGID_111_)" points="24.705,40.761 23.944,41.113 34.104,63.092 35.055,63.158 					"/>
				</g>
				<polygon fill="#FFFFFF" points="17.028,44.325 27.186,66.302 27.659,65.661 17.661,44.03 				"/>
				<polygon fill="#FFFFFF" points="23.31,41.408 33.308,63.04 34.104,63.092 23.944,41.113 				"/>
			</g>
			<g>
				
					<radialGradient id="SVGID_112_" cx="19.6963" cy="41.7534" r="32.0988" gradientTransform="matrix(1.0362 0 0 1.0385 -0.072 -2.424)" gradientUnits="userSpaceOnUse">
					<stop  offset="0" style="stop-color:#912620"/>
					<stop  offset="0.2358" style="stop-color:#8A241E"/>
					<stop  offset="0.5726" style="stop-color:#772017"/>
					<stop  offset="0.9685" style="stop-color:#59180C"/>
					<stop  offset="1" style="stop-color:#56170B"/>
				</radialGradient>
				<ellipse fill="url(#SVGID_112_)" cx="20.338" cy="40.938" rx="15.482" ry="15.519"/>
				<g>
					
						<radialGradient id="SVGID_113_" cx="20.3911" cy="41.6304" r="38.164" gradientTransform="matrix(1.0362 0 0 1.0385 -0.072 -2.424)" gradientUnits="userSpaceOnUse">
						<stop  offset="0" style="stop-color:#DA0000"/>
						<stop  offset="0.2028" style="stop-color:#D30303"/>
						<stop  offset="0.4925" style="stop-color:#C00A0B"/>
						<stop  offset="0.8329" style="stop-color:#A21618"/>
						<stop  offset="1" style="stop-color:#901D1F"/>
					</radialGradient>
					<path fill="url(#SVGID_113_)" d="M21.107,42.746v14.789c4.012-0.184,7.652-1.795,10.424-4.338L21.107,42.746z"/>
					
						<radialGradient id="SVGID_114_" cx="20.3906" cy="41.6313" r="38.159" gradientTransform="matrix(1.0362 0 0 1.0385 -0.072 -2.424)" gradientUnits="userSpaceOnUse">
						<stop  offset="0" style="stop-color:#DA0000"/>
						<stop  offset="0.2028" style="stop-color:#D30303"/>
						<stop  offset="0.4925" style="stop-color:#C00A0B"/>
						<stop  offset="0.8329" style="stop-color:#A21618"/>
						<stop  offset="1" style="stop-color:#901D1F"/>
					</radialGradient>
					<path fill="url(#SVGID_114_)" d="M19.994,40.051V24.325c-4.303,0.089-8.205,1.821-11.103,4.597L19.994,40.051z"/>
					
						<radialGradient id="SVGID_115_" cx="20.3906" cy="41.6304" r="38.1647" gradientTransform="matrix(1.0362 0 0 1.0385 -0.072 -2.424)" gradientUnits="userSpaceOnUse">
						<stop  offset="0" style="stop-color:#DA0000"/>
						<stop  offset="0.2028" style="stop-color:#D30303"/>
						<stop  offset="0.4925" style="stop-color:#C00A0B"/>
						<stop  offset="0.8329" style="stop-color:#A21618"/>
						<stop  offset="1" style="stop-color:#901D1F"/>
					</radialGradient>
					<path fill="url(#SVGID_115_)" d="M9.369,53.395c2.842,2.517,6.553,4.073,10.625,4.154V42.746L9.369,53.395z"/>
					
						<radialGradient id="SVGID_116_" cx="20.3901" cy="41.6313" r="38.1627" gradientTransform="matrix(1.0362 0 0 1.0385 -0.072 -2.424)" gradientUnits="userSpaceOnUse">
						<stop  offset="0" style="stop-color:#DA0000"/>
						<stop  offset="0.2028" style="stop-color:#D30303"/>
						<stop  offset="0.4925" style="stop-color:#C00A0B"/>
						<stop  offset="0.8329" style="stop-color:#A21618"/>
						<stop  offset="1" style="stop-color:#901D1F"/>
					</radialGradient>
					<path fill="url(#SVGID_116_)" d="M32,29.133c-2.823-2.806-6.651-4.599-10.893-4.792v15.711L32,29.133z"/>
					<g>
						
							<radialGradient id="SVGID_117_" cx="20.3906" cy="41.6294" r="38.1666" gradientTransform="matrix(1.0362 0 0 1.0385 -0.072 -2.424)" gradientUnits="userSpaceOnUse">
							<stop  offset="0" style="stop-color:#DA0000"/>
							<stop  offset="0.2028" style="stop-color:#D30303"/>
							<stop  offset="0.4925" style="stop-color:#C00A0B"/>
							<stop  offset="0.8329" style="stop-color:#A21618"/>
							<stop  offset="1" style="stop-color:#901D1F"/>
						</radialGradient>
						<path fill="url(#SVGID_117_)" d="M19.037,40.67L8.11,29.719c-2.646,2.896-4.279,6.733-4.345,10.951H19.037z"/>
						
							<radialGradient id="SVGID_118_" cx="20.3901" cy="41.6313" r="38.1589" gradientTransform="matrix(1.0362 0 0 1.0385 -0.072 -2.424)" gradientUnits="userSpaceOnUse">
							<stop  offset="0" style="stop-color:#DA0000"/>
							<stop  offset="0.2028" style="stop-color:#D30303"/>
							<stop  offset="0.4925" style="stop-color:#C00A0B"/>
							<stop  offset="0.8329" style="stop-color:#A21618"/>
							<stop  offset="1" style="stop-color:#901D1F"/>
						</radialGradient>
						<path fill="url(#SVGID_118_)" d="M3.782,41.789c0.213,4.22,1.996,8.023,4.775,10.838l10.815-10.838H3.782z"/>
					</g>
					<g>
						
							<radialGradient id="SVGID_119_" cx="20.3906" cy="41.6294" r="38.1686" gradientTransform="matrix(1.0362 0 0 1.0385 -0.072 -2.424)" gradientUnits="userSpaceOnUse">
							<stop  offset="0" style="stop-color:#DA0000"/>
							<stop  offset="0.2028" style="stop-color:#D30303"/>
							<stop  offset="0.4925" style="stop-color:#C00A0B"/>
							<stop  offset="0.8329" style="stop-color:#A21618"/>
							<stop  offset="1" style="stop-color:#901D1F"/>
						</radialGradient>
						<path fill="url(#SVGID_119_)" d="M36.915,40.67c-0.065-4.11-1.619-7.859-4.146-10.729L22.063,40.67H36.915z"/>
						
							<radialGradient id="SVGID_120_" cx="20.3906" cy="41.6313" r="38.1604" gradientTransform="matrix(1.0362 0 0 1.0385 -0.072 -2.424)" gradientUnits="userSpaceOnUse">
							<stop  offset="0" style="stop-color:#DA0000"/>
							<stop  offset="0.2028" style="stop-color:#D30303"/>
							<stop  offset="0.4925" style="stop-color:#C00A0B"/>
							<stop  offset="0.8329" style="stop-color:#A21618"/>
							<stop  offset="1" style="stop-color:#901D1F"/>
						</radialGradient>
						<path fill="url(#SVGID_120_)" d="M21.727,41.789l10.601,10.622c2.662-2.788,4.361-6.511,4.567-10.622H21.727z"/>
					</g>
				</g>
				
					<radialGradient id="SVGID_121_" cx="19.5415" cy="44.6968" r="14.1162" gradientTransform="matrix(1.0362 0 0 1.0385 -0.072 -2.424)" gradientUnits="userSpaceOnUse">
					<stop  offset="0" style="stop-color:#FFFFFF"/>
					<stop  offset="0.1123" style="stop-color:#F3F4F4"/>
					<stop  offset="0.3107" style="stop-color:#E5E6E8"/>
					<stop  offset="0.5578" style="stop-color:#DDDEE0"/>
					<stop  offset="1" style="stop-color:#DBDCDE"/>
				</radialGradient>
				<ellipse fill="url(#SVGID_121_)" cx="20.339" cy="40.938" rx="10.415" ry="10.438"/>
				
					<radialGradient id="SVGID_122_" cx="19.8525" cy="42.3989" r="20.8294" gradientTransform="matrix(1.0362 0 0 1.0385 -0.072 -2.424)" gradientUnits="userSpaceOnUse">
					<stop  offset="0" style="stop-color:#FFFFFF"/>
					<stop  offset="0.3275" style="stop-color:#F8F8F9"/>
					<stop  offset="0.7944" style="stop-color:#E6E6E8"/>
					<stop  offset="1" style="stop-color:#DBDCDE"/>
				</radialGradient>
				<path fill="url(#SVGID_122_)" d="M12.961,49.792c1.916,1.605,4.359,2.599,7.032,2.678v-9.724L12.961,49.792z"/>
				<g>
					<path fill="#FFFFFF" d="M21.107,42.746v9.702c2.613-0.172,4.987-1.218,6.836-2.852L21.107,42.746z"/>
					<path fill="#FFFFFF" d="M28.417,32.723c-1.907-1.883-4.467-3.107-7.31-3.294v10.622L28.417,32.723z"/>
					<path fill="#FFFFFF" d="M19.994,40.051V29.408c-2.904,0.086-5.54,1.251-7.518,3.107L19.994,40.051z"/>
					<g>
						<path fill="#FFFFFF" d="M31.845,40.67c-0.061-2.71-1.054-5.188-2.671-7.126l-7.11,7.126H31.845z"/>
						<path fill="#FFFFFF" d="M21.727,41.789l7.015,7.031c1.747-1.868,2.88-4.321,3.077-7.031H21.727z"/>
					</g>
					<g>
						<path fill="#FFFFFF" d="M19.037,40.67l-7.339-7.354c-1.73,1.971-2.802,4.538-2.867,7.354H19.037z"/>
						<path fill="#FFFFFF" d="M8.86,41.789c0.204,2.817,1.42,5.354,3.282,7.246l7.231-7.246H8.86z"/>
					</g>
				</g>
				<ellipse fill="#DA0000" cx="20.339" cy="40.938" rx="6.237" ry="6.252"/>
			</g>
		</g>
	</g>
</g>
</svg>
