<?xml version="1.0" encoding="utf-8"?>
<!-- Generator: Adobe Illustrator 15.0.0, SVG Export Plug-In . SVG Version: 6.00 Build 0)  -->
<!DOCTYPE svg PUBLIC "-//W3C//DTD SVG 1.1//EN" "http://www.w3.org/Graphics/SVG/1.1/DTD/svg11.dtd">
<svg version="1.1" id="Capa_1" xmlns="http://www.w3.org/2000/svg" xmlns:xlink="http://www.w3.org/1999/xlink" x="0px" y="0px"
	 width="212.842px" height="77.21px" viewBox="0 0 212.842 77.21" enable-background="new 0 0 212.842 77.21" xml:space="preserve">
<g>
	<defs>
		<rect id="SVGID_7_" x="-96.079" y="-150.04" width="405" height="376.24"/>
	</defs>
	<clipPath id="SVGID_1_">
		<use xlink:href="#SVGID_7_"  overflow="visible"/>
	</clipPath>
	<path clip-path="url(#SVGID_1_)" fill="#DA7E33" d="M15.548,27.821l0.602,2.517c1.875-0.353,3.821-0.377,5.753-0.047v-4.059
		c0,0,3.781-5.257,5.635-7.94l-2.194-1.816l-3.214,6.996l-1.967,0.852v-0.852l-1.021-3.101l-3.102,1.738l1.211,2.214l0.038,0.663
		l-4.804-1.969L8.59,16.813l-2.346,2.195l5.183,5.144L15.548,27.821z"/>
	<path clip-path="url(#SVGID_1_)" fill="#BF2C30" d="M5.413,26.308l1.013,9.831c1.215-1.511,2.67-2.768,4.284-3.738
		c-0.243-0.922-0.479-2.066-0.28-2.452c0.351-0.685,1.087-1.755,1.087-1.755l0.753,1.369l0.028,2.001
		c0.608-0.279,1.232-0.526,1.872-0.729l-0.514-2.429l-1.771-3.051l-1.875-1.034l1.192-2.681l-2.875-1.209l-0.544,2.083L1.667,17.04
		l-1.512,2.421l2.987,1.249l-1.134,5.03L5.413,26.308z M4.576,21.378l3.157,1.376l-0.231,1.27H3.348L4.576,21.378z"/>
	<path clip-path="url(#SVGID_1_)" fill="#BF2C30" d="M32.57,7.396l-4.803,4.576l13.237,2.572c0,0-0.567,1.098-0.644,1.475
		l-5.295,4.727h-4.085l0.91-2.95l-3.065-0.491l-0.34,3.253l-2.799-1.816l-3.594-5.862l-2.95,0.906l7.112,8.475
		c0,0,0.263,3.026,0.453,4.388c0.125,0.896-0.311,3.375-0.621,4.958c2.082,0.979,3.86,2.341,5.293,3.965
		c0.237-1.632,0.867-6.203,1.38-11.952l5.861-3.439l-0.679,1.438l0.49,0.301l6.317-13.125L32.57,7.396z"/>
	<path clip-path="url(#SVGID_1_)" fill="#BF2C30" d="M15.01,46.565l-4.512-0.405l-1.511-4.403l0.89,4.718
		c0,0-1.777,2.596-2.358,3.847l3.111,3.777c0,0,3.014-0.547,5.231-1.989l-0.353-4.975l3.873-3.486L15.01,46.565z"/>
	<path clip-path="url(#SVGID_1_)" fill="#BF2C30" d="M19.44,38.186c0,0,3.214-1.952,5.589-2.483c0,0,1.878,1.84,3.675,4.432
		c0,0,2.232,0.794,3.752,1.541l-3.683-0.959c0,0-1.591,2.206-3.145,3.512l1.064,4.221l-1.721-3.999c0,0-3.236-0.843-4.937-1.366
		C20.036,43.084,19.175,41.085,19.44,38.186"/>
	<path clip-path="url(#SVGID_1_)" fill="#BF2C30" d="M15.736,37.393l-3.173-0.183l-0.521-3.13c0,0-3.55,2.166-5.002,4.224
		c-1.453,2.063-1.254,2.311-1.254,2.311l3.29,0.446c0,0,1.209-0.913,3.222-3.448L15.736,37.393z"/>
	<path clip-path="url(#SVGID_1_)" fill="#BF2C30" d="M33.953,46.442c-0.376-5.212-3.491-10.064-8.569-12.414
		c-7.437-3.443-16.258-0.202-19.703,7.236c-0.92,1.991-1.349,4.079-1.361,6.142c-0.175-2.426,0.24-4.924,1.333-7.288
		c3.443-7.442,12.263-10.68,19.702-7.238C30.803,35.4,33.983,40.805,33.953,46.442"/>
	<polygon clip-path="url(#SVGID_1_)" fill="#FFFFFF" points="32.088,12.812 37.483,13.859 39.743,8.22 35.704,7.756 	"/>
	<path clip-path="url(#SVGID_1_)" fill="#F3921F" d="M15.548,27.821l0.602,2.517c1.875-0.353,3.821-0.377,5.753-0.047v-4.059
		c0,0,3.781-5.257,5.635-7.94l-2.194-1.816l-3.214,6.996l-1.967,0.852v-0.852l-1.021-3.101l-3.102,1.738l1.211,2.214l0.038,0.663
		l-4.804-1.969L8.59,16.813l-2.346,2.195l5.183,5.144L15.548,27.821z"/>
	<path clip-path="url(#SVGID_1_)" fill="#BF2C30" d="M5.413,26.308l1.013,9.831c1.215-1.511,2.67-2.768,4.284-3.738
		c-0.243-0.922-0.479-2.066-0.28-2.452c0.351-0.685,1.087-1.755,1.087-1.755l0.753,1.369l0.028,2.001
		c0.608-0.279,1.232-0.526,1.872-0.729l-0.514-2.429l-1.771-3.051l-1.875-1.034l1.192-2.681l-2.875-1.209l-0.544,2.083L1.667,17.04
		l-1.512,2.421l2.987,1.249l-1.134,5.03L5.413,26.308z M4.576,21.378l3.157,1.376l-0.231,1.27H3.348L4.576,21.378z"/>
	<path clip-path="url(#SVGID_1_)" fill="#BF2C30" d="M32.57,7.396l-4.803,4.576l13.237,2.572c0,0-0.567,1.098-0.644,1.475
		l-5.295,4.727h-4.085l0.91-2.95l-3.065-0.491l-0.34,3.253l-2.799-1.816l-3.594-5.862l-2.95,0.906l7.112,8.475
		c0,0,0.263,3.026,0.453,4.388c0.125,0.896-0.311,3.375-0.621,4.958c2.082,0.979,3.86,2.341,5.293,3.965
		c0.237-1.632,0.867-6.203,1.38-11.952l5.861-3.439l-0.679,1.438l0.49,0.301l6.317-13.125L32.57,7.396z"/>
	<path clip-path="url(#SVGID_1_)" fill="#BF2C30" d="M15.01,46.565l-4.512-0.405l-1.511-4.403l0.89,4.718
		c0,0-1.777,2.596-2.358,3.847l3.111,3.777c0,0,3.014-0.547,5.231-1.989l-0.353-4.975l3.873-3.486L15.01,46.565z"/>
	<path clip-path="url(#SVGID_1_)" fill="#BF2C30" d="M19.44,38.186c0,0,3.214-1.952,5.589-2.483c0,0,1.878,1.84,3.675,4.432
		c0,0,2.232,0.794,3.752,1.541l-3.683-0.959c0,0-1.591,2.206-3.145,3.512l1.064,4.221l-1.721-3.999c0,0-3.236-0.843-4.937-1.366
		C20.036,43.084,19.175,41.085,19.44,38.186"/>
	<path clip-path="url(#SVGID_1_)" fill="#BF2C30" d="M15.736,37.393l-3.173-0.183l-0.521-3.13c0,0-3.55,2.166-5.002,4.224
		c-1.453,2.063-1.254,2.311-1.254,2.311l3.29,0.446c0,0,1.209-0.913,3.222-3.448L15.736,37.393z"/>
	<path clip-path="url(#SVGID_1_)" fill="#BF2C30" d="M33.953,46.442c-0.376-5.212-3.491-10.064-8.569-12.414
		c-7.437-3.443-16.258-0.202-19.703,7.236c-0.92,1.991-1.349,4.079-1.361,6.142c-0.175-2.426,0.24-4.924,1.333-7.288
		c3.443-7.442,12.263-10.68,19.702-7.238C30.803,35.4,33.983,40.805,33.953,46.442"/>
	<polygon clip-path="url(#SVGID_1_)" fill="#FFFFFF" points="32.088,12.812 37.483,13.859 39.743,8.22 35.704,7.756 	"/>
</g>
<g>
	<defs>
		<rect id="SVGID_9_" x="-69.079" y="-121.04" width="350" height="325.145"/>
	</defs>
	<clipPath id="SVGID_2_">
		<use xlink:href="#SVGID_9_"  overflow="visible"/>
	</clipPath>
</g>
<g>
	<defs>
		<rect id="SVGID_11_" x="-96.079" y="-150.04" width="405" height="376.24"/>
	</defs>
	<clipPath id="SVGID_3_">
		<use xlink:href="#SVGID_11_"  overflow="visible"/>
	</clipPath>
	<polygon clip-path="url(#SVGID_3_)" fill="#010302" points="127.82,69.761 128.945,61.748 127.48,61.748 127.751,59.826 
		132.925,59.826 132.654,61.748 131.188,61.748 130.062,69.761 	"/>
	<path clip-path="url(#SVGID_3_)" fill="#010302" d="M137.983,61.809l-1.12,7.952h-1.986l0.134-0.945
		c-0.232,0.352-0.502,0.621-0.817,0.813c-0.313,0.19-0.64,0.284-0.984,0.284c-0.509,0-0.868-0.162-1.074-0.492
		c-0.211-0.33-0.267-0.819-0.177-1.472l0.863-6.14h2.108l-0.776,5.523c-0.029,0.201-0.013,0.354,0.043,0.454
		c0.062,0.102,0.161,0.151,0.308,0.151c0.187,0,0.33-0.071,0.43-0.208c0.1-0.142,0.174-0.383,0.222-0.725l0.73-5.196H137.983z"/>
	<path clip-path="url(#SVGID_3_)" fill="#010302" d="M144.105,69.193c-0.284,0.244-0.561,0.428-0.827,0.546
		c-0.268,0.115-0.54,0.176-0.824,0.176c-0.5,0-0.875-0.174-1.118-0.521c-0.245-0.345-0.325-0.808-0.242-1.396l0.088-0.629
		c0.073-0.521,0.253-0.959,0.542-1.309c0.287-0.354,0.702-0.651,1.246-0.892c0.099-0.043,0.237-0.104,0.419-0.181
		c0.862-0.364,1.32-0.737,1.375-1.121l0.039-0.285c0.019-0.14-0.008-0.261-0.089-0.36c-0.079-0.098-0.185-0.147-0.324-0.147
		c-0.153,0-0.285,0.068-0.398,0.206c-0.111,0.135-0.185,0.324-0.219,0.563l-0.067,0.496h-1.959l0.071-0.496
		c0.097-0.69,0.391-1.229,0.883-1.606c0.495-0.384,1.144-0.573,1.943-0.573c0.88,0,1.494,0.183,1.838,0.551
		c0.348,0.366,0.461,0.968,0.345,1.805l-0.808,5.742h-1.958L144.105,69.193z M144.492,65.793c-0.435,0.224-0.726,0.418-0.873,0.585
		c-0.146,0.167-0.24,0.399-0.283,0.693l-0.111,0.806c-0.042,0.302-0.042,0.495,0.001,0.592c0.044,0.096,0.135,0.143,0.277,0.143
		c0.19,0,0.35-0.087,0.476-0.261c0.127-0.169,0.212-0.415,0.258-0.733L144.492,65.793z"/>
	<path clip-path="url(#SVGID_3_)" fill="#010302" d="M153.33,61.809l-1.12,7.952h-1.988l0.134-0.945
		c-0.23,0.352-0.503,0.621-0.817,0.813c-0.313,0.19-0.642,0.284-0.984,0.284c-0.509,0-0.867-0.162-1.074-0.492
		c-0.21-0.33-0.268-0.819-0.177-1.472l0.864-6.14h2.108l-0.777,5.523c-0.03,0.201-0.013,0.354,0.044,0.454
		c0.061,0.102,0.161,0.151,0.307,0.151c0.187,0,0.33-0.071,0.43-0.208c0.102-0.142,0.175-0.383,0.223-0.725l0.729-5.196H153.33z"/>
	<path clip-path="url(#SVGID_3_)" fill="#010302" d="M156.193,68.269l-0.221,1.565c-0.14,0.024-0.279,0.043-0.42,0.056
		c-0.143,0.016-0.284,0.022-0.425,0.022c-0.687,0-1.138-0.146-1.355-0.436c-0.215-0.292-0.254-0.923-0.117-1.896l0.58-4.118h-0.522
		l0.214-1.514h0.521l0.233-1.669h2.06l-0.233,1.669h0.574l-0.211,1.514h-0.612l-0.618,4.389c-0.02,0.141,0.014,0.245,0.099,0.315
		c0.085,0.069,0.22,0.103,0.399,0.103H156.193z"/>
	<path clip-path="url(#SVGID_3_)" fill="#010302" d="M157.367,64.138c0.118-0.829,0.419-1.45,0.903-1.862
		c0.487-0.408,1.166-0.612,2.037-0.612c0.873,0,1.496,0.204,1.871,0.612c0.376,0.412,0.504,1.033,0.387,1.862l-0.462,3.289
		c-0.116,0.834-0.422,1.455-0.91,1.865c-0.491,0.414-1.171,0.62-2.043,0.62c-0.874,0-1.495-0.204-1.864-0.615
		c-0.372-0.408-0.497-1.031-0.38-1.87L157.367,64.138z M159.928,67.724l0.547-3.88c0.033-0.234,0.021-0.402-0.041-0.504
		c-0.06-0.102-0.173-0.15-0.341-0.15c-0.165,0-0.291,0.051-0.381,0.154c-0.09,0.103-0.15,0.271-0.183,0.5l-0.546,3.88
		c-0.035,0.24-0.02,0.411,0.038,0.512c0.06,0.103,0.174,0.151,0.343,0.151c0.17,0,0.297-0.049,0.384-0.151
		C159.836,68.135,159.894,67.964,159.928,67.724"/>
	<path clip-path="url(#SVGID_3_)" fill="#010302" d="M168.138,67.724c-0.034,0.241-0.021,0.41,0.036,0.512
		c0.06,0.103,0.175,0.151,0.343,0.151c0.171,0,0.298-0.049,0.384-0.151c0.088-0.102,0.146-0.271,0.183-0.512l0.129-0.923h2.133
		l-0.087,0.626c-0.116,0.834-0.423,1.455-0.912,1.865c-0.489,0.414-1.17,0.62-2.042,0.62c-0.873,0-1.494-0.204-1.865-0.615
		c-0.369-0.408-0.496-1.031-0.378-1.87l0.46-3.289c0.119-0.829,0.419-1.45,0.905-1.862c0.486-0.409,1.165-0.612,2.034-0.612
		c0.874,0,1.498,0.203,1.871,0.612c0.379,0.412,0.504,1.033,0.39,1.862l-0.283,2.001h-3.075L168.138,67.724z M168.684,63.843
		l-0.118,0.843h0.944l0.118-0.843c0.033-0.233,0.021-0.401-0.04-0.503c-0.062-0.102-0.174-0.15-0.339-0.15
		c-0.166,0-0.295,0.051-0.383,0.154C168.777,63.447,168.715,63.615,168.684,63.843"/>
	<path clip-path="url(#SVGID_3_)" fill="#010302" d="M171.97,67.179h1.908l-0.064,0.463c-0.035,0.251-0.022,0.44,0.041,0.572
		c0.063,0.131,0.169,0.195,0.322,0.195c0.142,0,0.265-0.057,0.369-0.17c0.102-0.112,0.166-0.265,0.192-0.453
		c0.037-0.265-0.15-0.591-0.565-0.977c-0.031-0.026-0.054-0.049-0.064-0.06c-0.077-0.072-0.189-0.173-0.331-0.303
		c-0.972-0.882-1.401-1.729-1.287-2.534c0.096-0.688,0.395-1.239,0.894-1.649c0.5-0.409,1.124-0.614,1.872-0.614
		c0.719,0,1.248,0.189,1.593,0.568c0.341,0.373,0.464,0.905,0.369,1.588l-0.051,0.362h-1.896l0.048-0.351
		c0.035-0.244,0.026-0.426-0.028-0.538c-0.056-0.112-0.162-0.171-0.319-0.171c-0.131,0-0.246,0.052-0.345,0.149
		c-0.102,0.101-0.164,0.223-0.183,0.373c-0.039,0.282,0.233,0.683,0.823,1.206c0.185,0.161,0.325,0.288,0.425,0.381
		c0.488,0.445,0.807,0.843,0.961,1.189c0.151,0.349,0.195,0.756,0.132,1.221c-0.1,0.699-0.403,1.254-0.917,1.664
		c-0.511,0.414-1.156,0.62-1.937,0.62c-0.732,0-1.277-0.194-1.64-0.582c-0.361-0.391-0.493-0.93-0.395-1.618L171.97,67.179z"/>
	<path clip-path="url(#SVGID_3_)" fill="#010302" d="M180.171,68.269l-0.219,1.565c-0.142,0.024-0.283,0.043-0.424,0.056
		c-0.143,0.016-0.282,0.022-0.424,0.022c-0.688,0-1.14-0.146-1.352-0.436c-0.217-0.292-0.258-0.923-0.12-1.896l0.577-4.118h-0.521
		l0.214-1.514h0.521l0.234-1.669h2.061l-0.234,1.669h0.575l-0.214,1.514h-0.61l-0.617,4.389c-0.02,0.141,0.015,0.245,0.099,0.315
		c0.086,0.069,0.217,0.103,0.4,0.103H180.171z"/>
	<path clip-path="url(#SVGID_3_)" fill="#010302" d="M183.726,69.192c-0.285,0.245-0.563,0.429-0.829,0.547
		c-0.266,0.115-0.541,0.174-0.823,0.174c-0.5,0-0.875-0.172-1.119-0.52c-0.243-0.345-0.324-0.808-0.242-1.396l0.088-0.629
		c0.075-0.521,0.255-0.959,0.542-1.31c0.289-0.354,0.702-0.65,1.246-0.891c0.099-0.043,0.237-0.104,0.42-0.181
		c0.864-0.364,1.319-0.737,1.375-1.121l0.037-0.285c0.021-0.14-0.008-0.261-0.088-0.36c-0.079-0.098-0.187-0.147-0.324-0.147
		c-0.151,0-0.285,0.068-0.397,0.206c-0.112,0.135-0.185,0.324-0.218,0.563l-0.069,0.496h-1.956l0.068-0.496
		c0.097-0.69,0.395-1.229,0.887-1.606c0.494-0.384,1.139-0.573,1.939-0.573c0.881,0,1.493,0.183,1.84,0.551
		c0.347,0.366,0.462,0.968,0.343,1.805l-0.808,5.742h-1.956L183.726,69.192z M184.112,65.793c-0.437,0.224-0.729,0.418-0.874,0.585
		s-0.241,0.399-0.281,0.692l-0.113,0.807c-0.042,0.301-0.042,0.494,0.001,0.591c0.044,0.096,0.136,0.143,0.276,0.143
		c0.191,0,0.349-0.086,0.476-0.26c0.129-0.169,0.213-0.415,0.259-0.733L184.112,65.793z M183.367,61.214l1.446-1.728h1.788
		l-2.362,1.728H183.367z"/>
	<path clip-path="url(#SVGID_3_)" fill="#010302" d="M192.865,69.193c-0.284,0.244-0.562,0.428-0.827,0.546
		c-0.268,0.115-0.54,0.176-0.824,0.176c-0.5,0-0.875-0.174-1.118-0.521c-0.245-0.345-0.324-0.808-0.243-1.396l0.089-0.629
		c0.073-0.521,0.255-0.959,0.543-1.309c0.287-0.354,0.702-0.651,1.244-0.892c0.1-0.043,0.239-0.104,0.42-0.181
		c0.864-0.364,1.32-0.737,1.376-1.121l0.038-0.285c0.021-0.14-0.008-0.261-0.089-0.36c-0.078-0.098-0.187-0.147-0.324-0.147
		c-0.153,0-0.285,0.068-0.397,0.206c-0.112,0.135-0.185,0.324-0.221,0.563l-0.067,0.496h-1.957l0.069-0.496
		c0.098-0.69,0.394-1.229,0.887-1.606c0.495-0.384,1.142-0.573,1.94-0.573c0.88,0,1.495,0.183,1.838,0.551
		c0.349,0.366,0.463,0.968,0.344,1.805l-0.807,5.742h-1.958L192.865,69.193z M193.253,65.793c-0.437,0.224-0.727,0.418-0.874,0.585
		c-0.146,0.167-0.24,0.399-0.282,0.693l-0.112,0.806c-0.04,0.302-0.04,0.495,0.001,0.592c0.045,0.096,0.137,0.143,0.28,0.143
		c0.188,0,0.346-0.087,0.474-0.261c0.126-0.169,0.211-0.415,0.257-0.733L193.253,65.793z"/>
	<path clip-path="url(#SVGID_3_)" fill="#010302" d="M202.005,61.809l-1.321,9.394h-2.103l0.311-2.208
		c-0.225,0.298-0.479,0.53-0.76,0.686c-0.282,0.156-0.583,0.234-0.902,0.234c-0.51,0-0.864-0.164-1.07-0.491
		c-0.202-0.327-0.261-0.818-0.168-1.475l0.61-4.342c0.091-0.654,0.284-1.141,0.582-1.461c0.294-0.323,0.695-0.482,1.206-0.482
		c0.334,0,0.631,0.09,0.891,0.271c0.261,0.184,0.455,0.439,0.588,0.769l0.123-0.894H202.005z M199.522,64.49
		c0.071-0.496,0.083-0.828,0.034-0.997c-0.051-0.169-0.165-0.257-0.345-0.257c-0.147,0-0.261,0.05-0.345,0.149
		c-0.082,0.102-0.138,0.252-0.168,0.458l-0.543,3.869c-0.029,0.207-0.017,0.363,0.041,0.467c0.057,0.102,0.156,0.155,0.298,0.155
		c0.177,0,0.313-0.09,0.413-0.259c0.099-0.171,0.184-0.501,0.251-0.991L199.522,64.49z"/>
	<path clip-path="url(#SVGID_3_)" fill="#010302" d="M208.208,61.809l-1.12,7.952h-1.986l0.134-0.945
		c-0.231,0.352-0.504,0.621-0.818,0.813c-0.313,0.19-0.639,0.284-0.984,0.284c-0.509,0-0.866-0.162-1.076-0.492
		c-0.207-0.33-0.266-0.819-0.175-1.472l0.863-6.14h2.109l-0.777,5.523c-0.03,0.201-0.014,0.354,0.043,0.454
		c0.061,0.102,0.161,0.151,0.308,0.151c0.185,0,0.328-0.071,0.43-0.208c0.101-0.142,0.174-0.383,0.223-0.725l0.729-5.196H208.208z"
		/>
	<path clip-path="url(#SVGID_3_)" fill="#010302" d="M208.177,69.761l1.121-7.952h2.097l-1.121,7.952H208.177z M209.453,61.214
		l1.448-1.728h1.787l-2.362,1.728H209.453z"/>
	<rect x="165.455" y="46.002" clip-path="url(#SVGID_3_)" fill="#9EA0A6" width="3.604" height="3.605"/>
	<path clip-path="url(#SVGID_3_)" fill="#9EA0A6" d="M178.77,42.042c-0.058-0.442-0.205-0.837-0.442-1.191
		c-0.349-0.477-0.888-0.714-1.618-0.714c-1.043,0-1.754,0.516-2.138,1.548c-0.203,0.547-0.303,1.274-0.303,2.182
		c0,0.861,0.1,1.56,0.303,2.083c0.369,0.983,1.064,1.47,2.083,1.47c0.725,0,1.237-0.191,1.541-0.584
		c0.305-0.387,0.489-0.893,0.553-1.514h3.151c-0.071,0.94-0.41,1.825-1.019,2.664c-0.969,1.349-2.402,2.023-4.303,2.023
		s-3.298-0.563-4.193-1.689c-0.896-1.124-1.343-2.586-1.343-4.378c0-2.025,0.494-3.6,1.483-4.726s2.355-1.688,4.097-1.688
		c1.481,0,2.692,0.332,3.635,0.995c0.944,0.664,1.5,1.839,1.674,3.52H178.77z"/>
	<path clip-path="url(#SVGID_3_)" fill="#9EA0A6" d="M192.995,48.164c-0.997,1.23-2.508,1.845-4.536,1.845
		c-2.027,0-3.538-0.614-4.534-1.845c-0.996-1.229-1.493-2.707-1.493-4.44c0-1.701,0.497-3.174,1.493-4.423
		c0.996-1.247,2.507-1.871,4.534-1.871c2.028,0,3.539,0.624,4.536,1.871c0.996,1.249,1.495,2.722,1.495,4.423
		C194.49,45.457,193.991,46.935,192.995,48.164 M190.528,46.461c0.482-0.645,0.725-1.555,0.725-2.738
		c0-1.181-0.242-2.091-0.725-2.729s-1.177-0.956-2.078-0.956c-0.902,0-1.6,0.318-2.085,0.956c-0.487,0.638-0.73,1.548-0.73,2.729
		c0,1.184,0.243,2.094,0.73,2.738c0.485,0.64,1.183,0.957,2.085,0.957C189.352,47.418,190.046,47.101,190.528,46.461"/>
	<path clip-path="url(#SVGID_3_)" fill="#9EA0A6" d="M210.532,37.852c0.505,0.202,0.965,0.556,1.376,1.059
		c0.332,0.412,0.555,0.919,0.67,1.52c0.072,0.395,0.11,0.976,0.11,1.738l-0.022,7.439h-3.161v-7.514
		c0-0.446-0.073-0.815-0.217-1.103c-0.273-0.548-0.78-0.823-1.516-0.823c-0.852,0-1.438,0.354-1.764,1.061
		c-0.169,0.375-0.25,0.826-0.25,1.354v7.024h-3.106v-7.024c0-0.7-0.07-1.211-0.216-1.529c-0.259-0.569-0.769-0.854-1.528-0.854
		c-0.879,0-1.47,0.284-1.773,0.854c-0.166,0.327-0.249,0.811-0.249,1.45v7.104h-3.129V37.83h2.998v1.721
		c0.383-0.612,0.743-1.048,1.082-1.309c0.6-0.462,1.376-0.694,2.328-0.694c0.902,0,1.633,0.198,2.188,0.597
		c0.447,0.368,0.786,0.842,1.019,1.417c0.402-0.691,0.904-1.204,1.503-1.527c0.636-0.323,1.342-0.486,2.121-0.486
		C209.516,37.547,210.028,37.65,210.532,37.852"/>
	<path clip-path="url(#SVGID_3_)" fill="#F3921F" d="M40.916,29.398h4.53l3.879,8.286c1.024,2.206,1.814,4.384,2.222,5.876
		c-0.147-1.612-0.292-4.265-0.321-5.697l-0.086-8.465h3.882v20.721h-4.264l-3.473-7.933c-1.108-2.589-2.368-5.513-2.75-6.796
		c0.147,1.698,0.181,4.141,0.208,5.876l0.115,8.853h-3.942V29.398z"/>
	<polygon clip-path="url(#SVGID_3_)" fill="#F3921F" points="59.837,29.398 71.397,29.398 70.872,32.796 63.921,32.796 
		63.921,37.595 69.734,37.595 69.734,40.999 63.979,40.999 63.979,46.54 71.663,46.54 71.663,50.119 59.837,50.119 	"/>
	<path clip-path="url(#SVGID_3_)" fill="#F3921F" d="M100.343,29.398h4.41l6.396,20.776h-4.38l-1.432-4.915h-5.956l-1.433,4.915
		H93.68L100.343,29.398z M100.369,41.801h3.973c0,0-0.672-2.177-1.11-4.176c-0.205-0.954-0.817-3.666-0.817-3.666
		s-0.583,2.444-0.963,3.991C101.072,39.445,100.812,40.428,100.369,41.801"/>
	<path clip-path="url(#SVGID_3_)" fill="#F3921F" d="M112.213,29.398h4.176v13.624c0,1.55,0.057,1.904,0.352,2.473
		c0.468,0.928,1.429,1.432,2.775,1.432c1.78,0,2.919-0.895,3.096-2.416c0.055-0.445,0.055-0.745,0.055-1.849V29.398h4.149v13.951
		c0,1.971-0.029,2.355-0.325,3.248c-0.521,1.645-2.511,3.905-6.889,3.905c-3.093,0-5.344-0.947-6.514-2.769
		c-0.67-1.078-0.875-1.909-0.875-3.91V29.398z"/>
	<polygon clip-path="url(#SVGID_3_)" fill="#F3921F" points="128.188,29.398 142.819,29.398 142.148,32.854 137.299,32.854 
		137.299,50.119 133.151,50.119 133.151,32.854 128.188,32.854 	"/>
	<path clip-path="url(#SVGID_3_)" fill="#010302" d="M153.144,29.407c-6.278,0-11.391,5.219-11.391,11.628
		s5.112,11.629,11.391,11.629c6.273,0,11.389-5.22,11.389-11.629S159.417,29.407,153.144,29.407 M153.144,48.791
		c-4.02,0-7.278-3.493-7.278-7.756c0-4.262,3.259-7.758,7.278-7.758c4.014,0,7.272,3.496,7.272,7.758
		C160.416,45.297,157.157,48.791,153.144,48.791"/>
	<path clip-path="url(#SVGID_3_)" fill="#010302" d="M83.246,29.408c6.278,0,11.394,5.22,11.394,11.63
		c0,6.409-5.116,11.628-11.394,11.628c-6.277,0-11.387-5.219-11.387-11.628C71.858,34.627,76.969,29.408,83.246,29.408
		 M83.246,48.792c4.017,0,7.275-3.495,7.275-7.755c0-4.264-3.258-7.759-7.275-7.759c-4.016,0-7.274,3.495-7.274,7.759
		C75.971,45.297,79.229,48.792,83.246,48.792"/>
	<path clip-path="url(#SVGID_3_)" fill="#010302" d="M89.02,25.717c7.052-8.463,17.58-13.841,29.322-13.841
		c11.683,0,22.171,5.326,29.221,13.726l-3.08,2.698c-6.32-7.525-15.679-12.285-26.141-12.285c-10.515,0-19.908,4.807-26.23,12.385
		L89.02,25.717z"/>
	<path clip-path="url(#SVGID_3_)" fill="#F3921F" d="M83.264,37.053c-0.52,0-0.941,0.421-0.941,0.941
		c0,0.521,0.421,0.944,0.941,0.944c0.52,0,0.941-0.424,0.941-0.944C84.206,37.474,83.784,37.053,83.264,37.053"/>
	<path clip-path="url(#SVGID_3_)" fill="#F3921F" d="M81.098,43.135c-0.521,0-0.941,0.42-0.941,0.938
		c0,0.521,0.42,0.944,0.941,0.944c0.518,0,0.941-0.423,0.941-0.944C82.039,43.555,81.616,43.135,81.098,43.135"/>
	<path clip-path="url(#SVGID_3_)" fill="#F3921F" d="M86.652,39.405c-0.52,0-0.94,0.421-0.94,0.939c0,0.522,0.421,0.942,0.94,0.942
		c0.521,0,0.942-0.42,0.942-0.942C87.595,39.826,87.173,39.405,86.652,39.405"/>
	<path clip-path="url(#SVGID_3_)" fill="#F3921F" d="M79.945,39.405c-0.519,0-0.94,0.421-0.94,0.941c0,0.521,0.422,0.94,0.94,0.94
		c0.52,0,0.941-0.419,0.941-0.94C80.887,39.826,80.465,39.405,79.945,39.405"/>
	<path clip-path="url(#SVGID_3_)" fill="#F3921F" d="M85.218,43.133c-0.521,0-0.941,0.422-0.941,0.94
		c0,0.521,0.42,0.944,0.941,0.944c0.52,0,0.94-0.423,0.94-0.944C86.158,43.555,85.738,43.133,85.218,43.133"/>
	<path clip-path="url(#SVGID_3_)" fill="#F3921F" d="M153.108,37.053c-0.52,0-0.942,0.421-0.942,0.941
		c0,0.521,0.423,0.944,0.942,0.944c0.519,0,0.94-0.424,0.94-0.944C154.049,37.474,153.627,37.053,153.108,37.053"/>
	<path clip-path="url(#SVGID_3_)" fill="#F3921F" d="M150.94,43.135c-0.519,0-0.939,0.42-0.939,0.938
		c0,0.521,0.421,0.944,0.939,0.944c0.522,0,0.941-0.423,0.941-0.944C151.882,43.555,151.463,43.135,150.94,43.135"/>
	<path clip-path="url(#SVGID_3_)" fill="#F3921F" d="M156.497,39.405c-0.519,0-0.942,0.421-0.942,0.939
		c0,0.522,0.424,0.942,0.942,0.942c0.52,0,0.941-0.42,0.941-0.942C157.438,39.826,157.017,39.405,156.497,39.405"/>
	<path clip-path="url(#SVGID_3_)" fill="#F3921F" d="M149.788,39.405c-0.518,0-0.94,0.421-0.94,0.941c0,0.521,0.423,0.94,0.94,0.94
		c0.522,0,0.943-0.419,0.943-0.94C150.731,39.826,150.311,39.405,149.788,39.405"/>
	<path clip-path="url(#SVGID_3_)" fill="#F3921F" d="M155.06,43.133c-0.519,0-0.938,0.422-0.938,0.94
		c0,0.521,0.42,0.944,0.938,0.944c0.522,0,0.942-0.423,0.942-0.944C156.002,43.555,155.582,43.133,155.06,43.133"/>
</g>
</svg>
